mc16_13TeV.345120.PowhegPy8EG_NNLOPS_nnlo_30_ggH125_tautaul13l7.deriv.DAOD_HIGG4D1.e5814_e5984_s3126_r9364_r9315_p3749
mc16_13TeV.345121.PowhegPy8EG_NNLOPS_nnlo_30_ggH125_tautaulm15hp20.deriv.DAOD_HIGG4D1.e5814_e5984_s3126_r9364_r9315_p3749
mc16_13TeV.345122.PowhegPy8EG_NNLOPS_nnlo_30_ggH125_tautaulp15hm20.deriv.DAOD_HIGG4D1.e5814_e5984_s3126_r9364_r9315_p3749
mc16_13TeV.345123.PowhegPy8EG_NNLOPS_nnlo_30_ggH125_tautauh30h20.deriv.DAOD_HIGG4D1.e5814_e5984_s3126_r9364_r9315_p3749
mc16_13TeV.345324.PowhegPythia8EvtGen_NNLOPS_NN30_ggH125_WWlvlv_EF_15_5.deriv.DAOD_HIGG4D1.e5769_e5984_s3126_r9364_r9315_p3749
mc16_13TeV.345323.PowhegPy8EG_NNPDF30_AZNLOCTEQ6L1_VBFH125_WWlvlv.deriv.DAOD_HIGG4D1.e5901_e5984_s3126_r9364_r9315_p3749
mc16_13TeV.345073.PowhegPy8EG_NNPDF30_AZNLOCTEQ6L1_VBFH125_tautaul13l7.deriv.DAOD_HIGG4D1.e5822_e5984_s3126_r9364_r9315_p3749
mc16_13TeV.345074.PowhegPy8EG_NNPDF30_AZNLOCTEQ6L1_VBFH125_tautaulm15hp20.deriv.DAOD_HIGG4D1.e5822_e5984_s3126_r9364_r9315_p3749
mc16_13TeV.345075.PowhegPy8EG_NNPDF30_AZNLOCTEQ6L1_VBFH125_tautaulp15hm20.deriv.DAOD_HIGG4D1.e5822_e5984_s3126_r9364_r9315_p3749
mc16_13TeV.345076.PowhegPy8EG_NNPDF30_AZNLOCTEQ6L1_VBFH125_tautauh30h20.deriv.DAOD_HIGG4D1.e5822_e5984_s3126_r9364_r9315_p3749
mc16_13TeV.345211.PowhegPy8EG_NNPDF30_AZNLO_WmH125J_Winc_MINLO_tautau.deriv.DAOD_HIGG4D1.e5808_e5984_s3126_r9364_r9315_p3749
mc16_13TeV.345212.PowhegPy8EG_NNPDF30_AZNLO_WpH125J_Winc_MINLO_tautau.deriv.DAOD_HIGG4D1.e5808_e5984_s3126_r9364_r9315_p3749
mc16_13TeV.345217.PowhegPy8EG_NNPDF30_AZNLO_ZH125J_Zinc_MINLO_tautau.deriv.DAOD_HIGG4D1.e5808_e5984_s3126_r9364_r9315_p3749
mc16_13TeV.345672.PowhegPythia8EvtGen_A14NNPDF23_NNPDF30ME_ttH125_allhad.deriv.DAOD_HIGG4D1.e6322_e5984_s3126_r9364_r9315_p3749
mc16_13TeV.345673.PowhegPythia8EvtGen_A14NNPDF23_NNPDF30ME_ttH125_semilep.deriv.DAOD_HIGG4D1.e6322_e5984_s3126_r9364_r9315_p3749
mc16_13TeV.345674.PowhegPythia8EvtGen_A14NNPDF23_NNPDF30ME_ttH125_dilep.deriv.DAOD_HIGG4D1.e6322_e5984_s3126_r9364_r9315_p3749

# WH xsec 1.373 pb, 0.5*1.373*6.272e-2=4.306e-2
# ZH xsec 8.839e-1pb, 8.839e-1*6.272e-2=5.544e-2
# H->tautau BR 6.272e-2
