mc16_13TeV.364250.Sherpa_222_NNPDF30NNLO_llll.deriv.DAOD_HIGG4D1.e5894_s3126_r9364_r9315_p3596
mc16_13TeV.364253.Sherpa_222_NNPDF30NNLO_lllv.deriv.DAOD_HIGG4D1.e5916_s3126_r9364_r9315_p3596
mc16_13TeV.364254.Sherpa_222_NNPDF30NNLO_llvv.deriv.DAOD_HIGG4D1.e5916_s3126_r9364_r9315_p3582
mc16_13TeV.364255.Sherpa_222_NNPDF30NNLO_lvvv.deriv.DAOD_HIGG4D1.e5916_s3126_r9364_r9315_p3596
mc16_13TeV.363355.Sherpa_221_NNPDF30NNLO_ZqqZvv.deriv.DAOD_HIGG4D1.e5525_s3126_r9364_r9315_p3596
mc16_13TeV.363356.Sherpa_221_NNPDF30NNLO_ZqqZll.deriv.DAOD_HIGG4D1.e5525_s3126_r9364_r9315_p3596
mc16_13TeV.363357.Sherpa_221_NNPDF30NNLO_WqqZvv.deriv.DAOD_HIGG4D1.e5525_s3126_r9364_r9315_p3627
mc16_13TeV.363358.Sherpa_221_NNPDF30NNLO_WqqZll.deriv.DAOD_HIGG4D1.e5525_s3126_r9364_r9315_p3627
mc16_13TeV.363359.Sherpa_221_NNPDF30NNLO_WpqqWmlv.deriv.DAOD_HIGG4D1.e5583_s3126_r9364_r9315_p3596
mc16_13TeV.363360.Sherpa_221_NNPDF30NNLO_WplvWmqq.deriv.DAOD_HIGG4D1.e5983_s3126_r9364_r9315_p3401
mc16_13TeV.345120.PowhegPy8EG_NNLOPS_nnlo_30_ggH125_tautaul13l7.deriv.DAOD_HIGG4D1.e5814_e5984_s3126_r9364_r9315_p3627
mc16_13TeV.345121.PowhegPy8EG_NNLOPS_nnlo_30_ggH125_tautaulm15hp20.deriv.DAOD_HIGG4D1.e5814_e5984_s3126_r9364_r9315_p3596
mc16_13TeV.345122.PowhegPy8EG_NNLOPS_nnlo_30_ggH125_tautaulp15hm20.deriv.DAOD_HIGG4D1.e5814_e5984_s3126_r9364_r9315_p3596
mc16_13TeV.345123.PowhegPy8EG_NNLOPS_nnlo_30_ggH125_tautauh30h20.deriv.DAOD_HIGG4D1.e5814_e5984_s3126_r9364_r9315_p3596
mc16_13TeV.345324.PowhegPythia8EvtGen_NNLOPS_NN30_ggH125_WWlvlv_EF_15_5.deriv.DAOD_HIGG4D1.e5769_e5984_s3126_r9364_r9315_p3543
# missing VBFH
