mc16_13TeV.410470.PhPy8EG_A14_ttbar_hdamp258p75_nonallhad.deriv.DAOD_HIGG4D1.e6337_e5984_s3126_r9364_r9315_p3749
mc16_13TeV.410644.PowhegPythia8EvtGen_A14_singletop_schan_lept_top.deriv.DAOD_HIGG4D1.e6527_e5984_s3126_r9364_r9315_p3749
mc16_13TeV.410645.PowhegPythia8EvtGen_A14_singletop_schan_lept_antitop.deriv.DAOD_HIGG4D1.e6527_e5984_s3126_r9364_r9315_p3749
mc16_13TeV.410646.PowhegPythia8EvtGen_A14_Wt_DR_inclusive_top.deriv.DAOD_HIGG4D1.e6552_e5984_s3126_r9364_r9315_p3749
mc16_13TeV.410647.PowhegPythia8EvtGen_A14_Wt_DR_inclusive_antitop.deriv.DAOD_HIGG4D1.e6552_e5984_s3126_r9364_r9315_p3749
mc16_13TeV.410658.PhPy8EG_A14_tchan_BW50_lept_top.deriv.DAOD_HIGG4D1.e6671_e5984_s3126_r9364_r9315_p3749
mc16_13TeV.410659.PhPy8EG_A14_tchan_BW50_lept_antitop.deriv.DAOD_HIGG4D1.e6671_e5984_s3126_r9364_r9315_p3749
