# mc16_13TeV.308094.Sherpa_221_NNPDF30NNLO_Ztautau2jets_Min_N_TChannel.deriv.DAOD_HIGG4D1.e5767_e5984_s3126_r9364_r9315_p3749
mc16_13TeV.344772.Sherpa_221_NNPDF30NNLO_Ztautau_MAXHTPTV0_70_l13l7.deriv.DAOD_HIGG4D1.e5585_s3126_r9364_r9315_p3749
mc16_13TeV.344774.Sherpa_221_NNPDF30NNLO_Ztautau_MAXHTPTV0_70_l15h20.deriv.DAOD_HIGG4D1.e5585_s3126_r9364_r9315_p3749
mc16_13TeV.344775.Sherpa_221_NNPDF30NNLO_Ztautau_MAXHTPTV0_70_h30h20.deriv.DAOD_HIGG4D1.e5585_s3126_r9364_r9315_p3749
mc16_13TeV.344776.Sherpa_221_NNPDF30NNLO_Ztautau_MAXHTPTV70_140_l13l7.deriv.DAOD_HIGG4D1.e5585_s3126_r9364_r9315_p3749
mc16_13TeV.344778.Sherpa_221_NNPDF30NNLO_Ztautau_MAXHTPTV70_140_l15h20.deriv.DAOD_HIGG4D1.e5585_s3126_r9364_r9315_p3749
mc16_13TeV.344779.Sherpa_221_NNPDF30NNLO_Ztautau_MAXHTPTV70_140_h30h20.deriv.DAOD_HIGG4D1.e5585_s3126_r9364_r9315_p3749
mc16_13TeV.344780.Sherpa_221_NNPDF30NNLO_Ztautau_MAXHTPTV140_280_l13l7.deriv.DAOD_HIGG4D1.e5585_s3126_r9364_r9315_p3749
mc16_13TeV.344781.Sherpa_221_NNPDF30NNLO_Ztautau_MAXHTPTV140_280_l15h20.deriv.DAOD_HIGG4D1.e5585_s3126_r9364_r9315_p3749
mc16_13TeV.344782.Sherpa_221_NNPDF30NNLO_Ztautau_MAXHTPTV140_280_h30h20.deriv.DAOD_HIGG4D1.e5585_s3126_r9364_r9315_p3749
# mc16_13TeV.364128.Sherpa_221_NNPDF30NNLO_Ztautau_MAXHTPTV0_70_CVetoBVeto.deriv.DAOD_HIGG4D1.e5307_s3126_r9364_r9315_p3749
# mc16_13TeV.364129.Sherpa_221_NNPDF30NNLO_Ztautau_MAXHTPTV0_70_CFilterBVeto.deriv.DAOD_HIGG4D1.e5307_s3126_r9364_r9315_p3749
# mc16_13TeV.364130.Sherpa_221_NNPDF30NNLO_Ztautau_MAXHTPTV0_70_BFilter.deriv.DAOD_HIGG4D1.e5307_s3126_r9364_r9315_p3749
# mc16_13TeV.364131.Sherpa_221_NNPDF30NNLO_Ztautau_MAXHTPTV70_140_CVetoBVeto.deriv.DAOD_HIGG4D1.e5307_s3126_r9364_r9315_p3749
# mc16_13TeV.364132.Sherpa_221_NNPDF30NNLO_Ztautau_MAXHTPTV70_140_CFilterBVeto.deriv.DAOD_HIGG4D1.e5307_s3126_r9364_r9315_p3749
# mc16_13TeV.364133.Sherpa_221_NNPDF30NNLO_Ztautau_MAXHTPTV70_140_BFilter.deriv.DAOD_HIGG4D1.e5307_s3126_r9364_r9315_p3749
# mc16_13TeV.364134.Sherpa_221_NNPDF30NNLO_Ztautau_MAXHTPTV140_280_CVetoBVeto.deriv.DAOD_HIGG4D1.e5307_s3126_r9364_r9315_p3749
# mc16_13TeV.364135.Sherpa_221_NNPDF30NNLO_Ztautau_MAXHTPTV140_280_CFilterBVeto.deriv.DAOD_HIGG4D1.e5307_s3126_r9364_r9315_p3749
# mc16_13TeV.364136.Sherpa_221_NNPDF30NNLO_Ztautau_MAXHTPTV140_280_BFilter.deriv.DAOD_HIGG4D1.e5307_s3126_r9364_r9315_p3749
mc16_13TeV.364137.Sherpa_221_NNPDF30NNLO_Ztautau_MAXHTPTV280_500_CVetoBVeto.deriv.DAOD_HIGG4D1.e5307_s3126_r9364_r9315_p3749
mc16_13TeV.364138.Sherpa_221_NNPDF30NNLO_Ztautau_MAXHTPTV280_500_CFilterBVeto.deriv.DAOD_HIGG4D1.e5313_s3126_r9364_r9315_p3749
mc16_13TeV.364139.Sherpa_221_NNPDF30NNLO_Ztautau_MAXHTPTV280_500_BFilter.deriv.DAOD_HIGG4D1.e5313_s3126_r9364_r9315_p3749
mc16_13TeV.364140.Sherpa_221_NNPDF30NNLO_Ztautau_MAXHTPTV500_1000.deriv.DAOD_HIGG4D1.e5307_s3126_r9364_r9315_p3749
mc16_13TeV.364141.Sherpa_221_NNPDF30NNLO_Ztautau_MAXHTPTV1000_E_CMS.deriv.DAOD_HIGG4D1.e5307_s3126_r9364_r9315_p3749
