mc16_13TeV.364250.Sherpa_222_NNPDF30NNLO_llll.recon.AOD.e5894_s3126_r9364
mc16_13TeV.364253.Sherpa_222_NNPDF30NNLO_lllv.recon.AOD.e5916_s3126_r9364
mc16_13TeV.364254.Sherpa_222_NNPDF30NNLO_llvv.recon.AOD.e5916_s3126_r9364
mc16_13TeV.364255.Sherpa_222_NNPDF30NNLO_lvvv.recon.AOD.e5916_s3126_r9364
mc16_13TeV.363355.Sherpa_221_NNPDF30NNLO_ZqqZvv.recon.AOD.e5525_s3126_r9364
mc16_13TeV.363356.Sherpa_221_NNPDF30NNLO_ZqqZll.recon.AOD.e5525_s3126_r9364
mc16_13TeV.363357.Sherpa_221_NNPDF30NNLO_WqqZvv.recon.AOD.e5525_s3126_r9364
mc16_13TeV.363358.Sherpa_221_NNPDF30NNLO_WqqZll.recon.AOD.e5525_s3126_r9364
mc16_13TeV.363359.Sherpa_221_NNPDF30NNLO_WpqqWmlv.recon.AOD.e5583_s3126_r9364
mc16_13TeV.363360.Sherpa_221_NNPDF30NNLO_WplvWmqq.recon.AOD.e5983_s3126_r9364

mc16_13TeV.364250.Sherpa_222_NNPDF30NNLO_llll.recon.AOD.e5894_s3126_r10201
mc16_13TeV.364253.Sherpa_222_NNPDF30NNLO_lllv.recon.AOD.e5916_s3126_r10201
mc16_13TeV.364254.Sherpa_222_NNPDF30NNLO_llvv.recon.AOD.e5916_s3126_r10201
mc16_13TeV.364255.Sherpa_222_NNPDF30NNLO_lvvv.recon.AOD.e5916_s3126_r10201
mc16_13TeV.363355.Sherpa_221_NNPDF30NNLO_ZqqZvv.recon.AOD.e5525_s3126_r10201
mc16_13TeV.363356.Sherpa_221_NNPDF30NNLO_ZqqZll.recon.AOD.e5525_s3126_r10201
mc16_13TeV.363357.Sherpa_221_NNPDF30NNLO_WqqZvv.recon.AOD.e5525_s3126_r10201
mc16_13TeV.363358.Sherpa_221_NNPDF30NNLO_WqqZll.recon.AOD.e5525_s3126_r10201
mc16_13TeV.363359.Sherpa_221_NNPDF30NNLO_WpqqWmlv.recon.AOD.e5583_s3126_r10201
mc16_13TeV.363360.Sherpa_221_NNPDF30NNLO_WplvWmqq.recon.AOD.e5983_s3126_r10201

mc16_13TeV.364250.Sherpa_222_NNPDF30NNLO_llll.recon.AOD.e5894_s3126_r10724
mc16_13TeV.364253.Sherpa_222_NNPDF30NNLO_lllv.recon.AOD.e5916_s3126_r10724
mc16_13TeV.364254.Sherpa_222_NNPDF30NNLO_llvv.recon.AOD.e5916_s3126_r10724
mc16_13TeV.364255.Sherpa_222_NNPDF30NNLO_lvvv.recon.AOD.e5916_s3126_r10724
mc16_13TeV.363355.Sherpa_221_NNPDF30NNLO_ZqqZvv.recon.AOD.e5525_s3126_r10724
mc16_13TeV.363356.Sherpa_221_NNPDF30NNLO_ZqqZll.recon.AOD.e5525_s3126_r10724
mc16_13TeV.363357.Sherpa_221_NNPDF30NNLO_WqqZvv.recon.AOD.e5525_s3126_r10724
mc16_13TeV.363358.Sherpa_221_NNPDF30NNLO_WqqZll.recon.AOD.e5525_s3126_r10724
mc16_13TeV.363359.Sherpa_221_NNPDF30NNLO_WpqqWmlv.recon.AOD.e5583_s3126_r10724
mc16_13TeV.363360.Sherpa_221_NNPDF30NNLO_WplvWmqq.recon.AOD.e5983_s3126_r10724
