data15_13TeV.00276262.physics_Main.merge.AOD.r9264_p3083
data15_13TeV.00276329.physics_Main.merge.AOD.r9264_p3083
data15_13TeV.00276336.physics_Main.merge.AOD.r9264_p3083
data15_13TeV.00276416.physics_Main.merge.AOD.r9264_p3083
data15_13TeV.00276511.physics_Main.merge.AOD.r9264_p3083
data15_13TeV.00276689.physics_Main.merge.AOD.r9264_p3083
data15_13TeV.00276778.physics_Main.merge.AOD.r9264_p3083
data15_13TeV.00276790.physics_Main.merge.AOD.r9264_p3083
data15_13TeV.00276952.physics_Main.merge.AOD.r9264_p3083
data15_13TeV.00276954.physics_Main.merge.AOD.r9264_p3083
data15_13TeV.00278880.physics_Main.merge.AOD.r9264_p3083
data15_13TeV.00278912.physics_Main.merge.AOD.r9264_p3083
data15_13TeV.00278968.physics_Main.merge.AOD.r9264_p3083
data15_13TeV.00279169.physics_Main.merge.AOD.r9264_p3083
data15_13TeV.00279259.physics_Main.merge.AOD.r9264_p3083
data15_13TeV.00279279.physics_Main.merge.AOD.r9264_p3083
data15_13TeV.00279284.physics_Main.merge.AOD.r9264_p3083
data15_13TeV.00279345.physics_Main.merge.AOD.r9264_p3083
data15_13TeV.00279515.physics_Main.merge.AOD.r9264_p3083
data15_13TeV.00279598.physics_Main.merge.AOD.r9264_p3083
data15_13TeV.00279685.physics_Main.merge.AOD.r9264_p3083
data15_13TeV.00279764.physics_Main.merge.AOD.r9264_p3083
data15_13TeV.00279813.physics_Main.merge.AOD.r9264_p3083
data15_13TeV.00279867.physics_Main.merge.AOD.r9264_p3083
data15_13TeV.00279928.physics_Main.merge.AOD.r9264_p3083
data15_13TeV.00279932.physics_Main.merge.AOD.r9264_p3083
data15_13TeV.00279984.physics_Main.merge.AOD.r9264_p3083
data15_13TeV.00280231.physics_Main.merge.AOD.r9264_p3083
data15_13TeV.00280273.physics_Main.merge.AOD.r9264_p3083
data15_13TeV.00280319.physics_Main.merge.AOD.r9264_p3083
data15_13TeV.00280368.physics_Main.merge.AOD.r9264_p3083
data15_13TeV.00280423.physics_Main.merge.AOD.r9264_p3083
data15_13TeV.00280464.physics_Main.merge.AOD.r9264_p3083
data15_13TeV.00280500.physics_Main.merge.AOD.r9264_p3083
data15_13TeV.00280520.physics_Main.merge.AOD.r9264_p3083
data15_13TeV.00280614.physics_Main.merge.AOD.r9264_p3083
data15_13TeV.00280673.physics_Main.merge.AOD.r9264_p3083
data15_13TeV.00280753.physics_Main.merge.AOD.r9264_p3083
data15_13TeV.00280853.physics_Main.merge.AOD.r9264_p3083
data15_13TeV.00280862.physics_Main.merge.AOD.r9264_p3083
data15_13TeV.00280950.physics_Main.merge.AOD.r9264_p3083
data15_13TeV.00280977.physics_Main.merge.AOD.r9264_p3083
data15_13TeV.00281070.physics_Main.merge.AOD.r9264_p3083
data15_13TeV.00281074.physics_Main.merge.AOD.r9264_p3083
data15_13TeV.00281075.physics_Main.merge.AOD.r9264_p3083
data15_13TeV.00281317.physics_Main.merge.AOD.r9264_p3083
data15_13TeV.00281385.physics_Main.merge.AOD.r9264_p3083
data15_13TeV.00281411.physics_Main.merge.AOD.r9264_p3083
data15_13TeV.00282625.physics_Main.merge.AOD.r9264_p3083
data15_13TeV.00282631.physics_Main.merge.AOD.r9264_p3083
data15_13TeV.00282712.physics_Main.merge.AOD.r9264_p3083
data15_13TeV.00282784.physics_Main.merge.AOD.r9264_p3083
data15_13TeV.00282992.physics_Main.merge.AOD.r9264_p3083
data15_13TeV.00283074.physics_Main.merge.AOD.r9264_p3083
data15_13TeV.00283155.physics_Main.merge.AOD.r9264_p3083
data15_13TeV.00283270.physics_Main.merge.AOD.r9264_p3083
data15_13TeV.00283429.physics_Main.merge.AOD.r9264_p3083
data15_13TeV.00283608.physics_Main.merge.AOD.r9264_p3083
data15_13TeV.00283780.physics_Main.merge.AOD.r9264_p3083
data15_13TeV.00284006.physics_Main.merge.AOD.r9264_p3083
data15_13TeV.00284154.physics_Main.merge.AOD.r9264_p3083
data15_13TeV.00284213.physics_Main.merge.AOD.r9264_p3083
data15_13TeV.00284285.physics_Main.merge.AOD.r9264_p3083
data15_13TeV.00284420.physics_Main.merge.AOD.r9264_p3083
data15_13TeV.00284427.physics_Main.merge.AOD.r9264_p3083
data15_13TeV.00284484.physics_Main.merge.AOD.r9264_p3083
data16_13TeV.00297730.physics_Main.merge.AOD.r9264_p3083
data16_13TeV.00298595.physics_Main.merge.AOD.r9264_p3083
data16_13TeV.00298609.physics_Main.merge.AOD.r9264_p3083
data16_13TeV.00298633.physics_Main.merge.AOD.r9264_p3083
data16_13TeV.00298687.physics_Main.merge.AOD.r9264_p3083
data16_13TeV.00298690.physics_Main.merge.AOD.r9264_p3083
data16_13TeV.00298771.physics_Main.merge.AOD.r9264_p3083
data16_13TeV.00298773.physics_Main.merge.AOD.r9264_p3083
data16_13TeV.00298862.physics_Main.merge.AOD.r9264_p3083
data16_13TeV.00298967.physics_Main.merge.AOD.r9264_p3083
data16_13TeV.00299055.physics_Main.merge.AOD.r9264_p3083
data16_13TeV.00299144.physics_Main.merge.AOD.r9264_p3083
data16_13TeV.00299147.physics_Main.merge.AOD.r9264_p3083
data16_13TeV.00299184.physics_Main.merge.AOD.r9264_p3083
data16_13TeV.00299243.physics_Main.merge.AOD.r9264_p3083
data16_13TeV.00299584.physics_Main.merge.AOD.r9264_p3083
data16_13TeV.00300279.physics_Main.merge.AOD.r9264_p3083
data16_13TeV.00300345.physics_Main.merge.AOD.r9264_p3083
data16_13TeV.00300415.physics_Main.merge.AOD.r9264_p3083
data16_13TeV.00300418.physics_Main.merge.AOD.r9264_p3083
data16_13TeV.00300487.physics_Main.merge.AOD.r9264_p3083
data16_13TeV.00300540.physics_Main.merge.AOD.r9264_p3083
data16_13TeV.00300571.physics_Main.merge.AOD.r9264_p3083
data16_13TeV.00300600.physics_Main.merge.AOD.r9264_p3083
data16_13TeV.00300655.physics_Main.merge.AOD.r9264_p3083
data16_13TeV.00300687.physics_Main.merge.AOD.r9264_p3083
data16_13TeV.00300784.physics_Main.merge.AOD.r9264_p3083
data16_13TeV.00300800.physics_Main.merge.AOD.r9264_p3083
data16_13TeV.00300863.physics_Main.merge.AOD.r9264_p3083
data16_13TeV.00300908.physics_Main.merge.AOD.r9264_p3083
data16_13TeV.00301912.physics_Main.merge.AOD.r9264_p3083
data16_13TeV.00301915.physics_Main.merge.AOD.r9264_p3083
data16_13TeV.00301918.physics_Main.merge.AOD.r9264_p3083
data16_13TeV.00301932.physics_Main.merge.AOD.r9264_p3083
data16_13TeV.00301973.physics_Main.merge.AOD.r9264_p3083
data16_13TeV.00302053.physics_Main.merge.AOD.r9264_p3083
data16_13TeV.00302137.physics_Main.merge.AOD.r9264_p3083
data16_13TeV.00302265.physics_Main.merge.AOD.r9264_p3083
data16_13TeV.00302269.physics_Main.merge.AOD.r9264_p3083
data16_13TeV.00302300.physics_Main.merge.AOD.r9264_p3083
data16_13TeV.00302347.physics_Main.merge.AOD.r9264_p3083
data16_13TeV.00302380.physics_Main.merge.AOD.r9264_p3083
data16_13TeV.00302391.physics_Main.merge.AOD.r9264_p3083
data16_13TeV.00302393.physics_Main.merge.AOD.r9264_p3083
data16_13TeV.00302737.physics_Main.merge.AOD.r9264_p3083
data16_13TeV.00302831.physics_Main.merge.AOD.r9264_p3083
data16_13TeV.00302872.physics_Main.merge.AOD.r9264_p3083
data16_13TeV.00302919.physics_Main.merge.AOD.r9264_p3083
data16_13TeV.00302925.physics_Main.merge.AOD.r9264_p3083
data16_13TeV.00302956.physics_Main.merge.AOD.r9264_p3083
data16_13TeV.00303007.physics_Main.merge.AOD.r9264_p3083
data16_13TeV.00303079.physics_Main.merge.AOD.r9264_p3083
data16_13TeV.00303201.physics_Main.merge.AOD.r9264_p3083
data16_13TeV.00303208.physics_Main.merge.AOD.r9264_p3083
data16_13TeV.00303264.physics_Main.merge.AOD.r9264_p3083
data16_13TeV.00303266.physics_Main.merge.AOD.r9264_p3083
data16_13TeV.00303291.physics_Main.merge.AOD.r9264_p3083
data16_13TeV.00303304.physics_Main.merge.AOD.r9264_p3083
data16_13TeV.00303338.physics_Main.merge.AOD.r9264_p3083
data16_13TeV.00303421.physics_Main.merge.AOD.r9264_p3083
data16_13TeV.00303499.physics_Main.merge.AOD.r9264_p3083
data16_13TeV.00303560.physics_Main.merge.AOD.r9264_p3083
data16_13TeV.00303638.physics_Main.merge.AOD.r9264_p3083
data16_13TeV.00303832.physics_Main.merge.AOD.r9264_p3083
data16_13TeV.00303846.physics_Main.merge.AOD.r9264_p3083
data16_13TeV.00303892.physics_Main.merge.AOD.r9264_p3083
data16_13TeV.00303943.physics_Main.merge.AOD.r9264_p3083
data16_13TeV.00304006.physics_Main.merge.AOD.r9264_p3083
data16_13TeV.00304008.physics_Main.merge.AOD.r9264_p3083
data16_13TeV.00304128.physics_Main.merge.AOD.r9264_p3083
data16_13TeV.00304178.physics_Main.merge.AOD.r9264_p3083
data16_13TeV.00304198.physics_Main.merge.AOD.r9264_p3083
data16_13TeV.00304211.physics_Main.merge.AOD.r9264_p3083
data16_13TeV.00304243.physics_Main.merge.AOD.r9264_p3083
data16_13TeV.00304308.physics_Main.merge.AOD.r9264_p3083
data16_13TeV.00304337.physics_Main.merge.AOD.r9264_p3083
data16_13TeV.00304409.physics_Main.merge.AOD.r9264_p3083
data16_13TeV.00304431.physics_Main.merge.AOD.r9264_p3083
data16_13TeV.00304494.physics_Main.merge.AOD.r9264_p3083
data16_13TeV.00305380.physics_Main.merge.AOD.r9264_p3083
data16_13TeV.00305543.physics_Main.merge.AOD.r9264_p3083
data16_13TeV.00305571.physics_Main.merge.AOD.r9264_p3083
data16_13TeV.00305618.physics_Main.merge.AOD.r9264_p3083
data16_13TeV.00305671.physics_Main.merge.AOD.r9264_p3083
data16_13TeV.00305674.physics_Main.merge.AOD.r9264_p3083
data16_13TeV.00305723.physics_Main.merge.AOD.r9264_p3083
data16_13TeV.00305727.physics_Main.merge.AOD.r9264_p3083
data16_13TeV.00305735.physics_Main.merge.AOD.r9264_p3083
data16_13TeV.00305777.physics_Main.merge.AOD.r9264_p3083
data16_13TeV.00305811.physics_Main.merge.AOD.r9264_p3083
data16_13TeV.00305920.physics_Main.merge.AOD.r9264_p3083
data16_13TeV.00306269.physics_Main.merge.AOD.r9264_p3083
data16_13TeV.00306278.physics_Main.merge.AOD.r9264_p3083
data16_13TeV.00306310.physics_Main.merge.AOD.r9264_p3083
data16_13TeV.00306384.physics_Main.merge.AOD.r9264_p3083
data16_13TeV.00306419.physics_Main.merge.AOD.r9264_p3083
data16_13TeV.00306442.physics_Main.merge.AOD.r9264_p3083
data16_13TeV.00306448.physics_Main.merge.AOD.r9264_p3083
data16_13TeV.00306451.physics_Main.merge.AOD.r9264_p3083
data16_13TeV.00307126.physics_Main.merge.AOD.r9264_p3083
data16_13TeV.00307195.physics_Main.merge.AOD.r9264_p3083
data16_13TeV.00307259.physics_Main.merge.AOD.r9264_p3083
data16_13TeV.00307306.physics_Main.merge.AOD.r9264_p3083
data16_13TeV.00307354.physics_Main.merge.AOD.r9264_p3083
data16_13TeV.00307358.physics_Main.merge.AOD.r9264_p3083
data16_13TeV.00307394.physics_Main.merge.AOD.r9264_p3083
data16_13TeV.00307454.physics_Main.merge.AOD.r9264_p3083
data16_13TeV.00307514.physics_Main.merge.AOD.r9264_p3083
data16_13TeV.00307539.physics_Main.merge.AOD.r9264_p3083
data16_13TeV.00307569.physics_Main.merge.AOD.r9264_p3083
data16_13TeV.00307601.physics_Main.merge.AOD.r9264_p3083
data16_13TeV.00307619.physics_Main.merge.AOD.r9264_p3083
data16_13TeV.00307656.physics_Main.merge.AOD.r9264_p3083
data16_13TeV.00307710.physics_Main.merge.AOD.r9264_p3083
data16_13TeV.00307716.physics_Main.merge.AOD.r9264_p3083
data16_13TeV.00307732.physics_Main.merge.AOD.r9264_p3083
data16_13TeV.00307861.physics_Main.merge.AOD.r9264_p3083
data16_13TeV.00307935.physics_Main.merge.AOD.r9264_p3083
data16_13TeV.00308047.physics_Main.merge.AOD.r9264_p3083
data16_13TeV.00308084.physics_Main.merge.AOD.r9264_p3083
data16_13TeV.00309375.physics_Main.merge.AOD.r9264_p3083
data16_13TeV.00309390.physics_Main.merge.AOD.r9264_p3083
data16_13TeV.00309440.physics_Main.merge.AOD.r9264_p3083
data16_13TeV.00309516.physics_Main.merge.AOD.r9264_p3083
data16_13TeV.00309640.physics_Main.merge.AOD.r9264_p3083
data16_13TeV.00309674.physics_Main.merge.AOD.r9264_p3083
data16_13TeV.00309759.physics_Main.merge.AOD.r9264_p3083
data16_13TeV.00310015.physics_Main.merge.AOD.r9264_p3083
data16_13TeV.00310247.physics_Main.merge.AOD.r9264_p3083
data16_13TeV.00310249.physics_Main.merge.AOD.r9264_p3083
data16_13TeV.00310341.physics_Main.merge.AOD.r9264_p3083
data16_13TeV.00310370.physics_Main.merge.AOD.r9264_p3083
data16_13TeV.00310405.physics_Main.merge.AOD.r9264_p3083
data16_13TeV.00310468.physics_Main.merge.AOD.r9264_p3083
data16_13TeV.00310473.physics_Main.merge.AOD.r9264_p3083
data16_13TeV.00310634.physics_Main.merge.AOD.r9264_p3083
data16_13TeV.00310691.physics_Main.merge.AOD.r9264_p3083
data16_13TeV.00310738.physics_Main.merge.AOD.r9264_p3083
data16_13TeV.00310809.physics_Main.merge.AOD.r9264_p3083
data16_13TeV.00310863.physics_Main.merge.AOD.r9264_p3083
data16_13TeV.00310872.physics_Main.merge.AOD.r9264_p3083
data16_13TeV.00310969.physics_Main.merge.AOD.r9264_p3083
data16_13TeV.00311071.physics_Main.merge.AOD.r9264_p3083
data16_13TeV.00311170.physics_Main.merge.AOD.r9264_p3083
data16_13TeV.00311244.physics_Main.merge.AOD.r9264_p3083
data16_13TeV.00311287.physics_Main.merge.AOD.r9264_p3083
data16_13TeV.00311321.physics_Main.merge.AOD.r9264_p3083
data16_13TeV.00311365.physics_Main.merge.AOD.r9264_p3083
data16_13TeV.00311402.physics_Main.merge.AOD.r9264_p3083
data16_13TeV.00311473.physics_Main.merge.AOD.r9264_p3083
data16_13TeV.00311481.physics_Main.merge.AOD.r9264_p3083
data17_13TeV.00325713.physics_Main.merge.AOD.r10260_p3399
data17_13TeV.00325790.physics_Main.merge.AOD.r10250_p3399
data17_13TeV.00326439.physics_Main.merge.AOD.r10250_p3399
data17_13TeV.00326446.physics_Main.merge.AOD.r10250_p3399
data17_13TeV.00326468.physics_Main.merge.AOD.r10250_p3399
data17_13TeV.00326551.physics_Main.merge.AOD.r10250_p3399
data17_13TeV.00326657.physics_Main.merge.AOD.r10250_p3399
data17_13TeV.00326695.physics_Main.merge.AOD.r10250_p3399
data17_13TeV.00326834.physics_Main.merge.AOD.r10250_p3399
data17_13TeV.00326870.physics_Main.merge.AOD.r10250_p3399
data17_13TeV.00326923.physics_Main.merge.AOD.r10250_p3399
data17_13TeV.00326945.physics_Main.merge.AOD.r10250_p3399
data17_13TeV.00327057.physics_Main.merge.AOD.r10250_p3399
data17_13TeV.00327103.physics_Main.merge.AOD.r10250_p3399
data17_13TeV.00327265.physics_Main.merge.AOD.r10250_p3399
data17_13TeV.00327342.physics_Main.merge.AOD.r10203_p3399
data17_13TeV.00327490.physics_Main.merge.AOD.r10203_p3399
data17_13TeV.00327582.physics_Main.merge.AOD.r10203_p3399
data17_13TeV.00327636.physics_Main.merge.AOD.r10203_p3399
data17_13TeV.00327662.physics_Main.merge.AOD.r10203_p3399
data17_13TeV.00327745.physics_Main.merge.AOD.r10203_p3399
data17_13TeV.00327761.physics_Main.merge.AOD.r10203_p3399
data17_13TeV.00327764.physics_Main.merge.AOD.r10203_p3399
data17_13TeV.00327860.physics_Main.merge.AOD.r10203_p3399
data17_13TeV.00327862.physics_Main.merge.AOD.r10203_p3399
data17_13TeV.00328042.physics_Main.merge.AOD.r10203_p3399
data17_13TeV.00328099.physics_Main.merge.AOD.r10203_p3399
data17_13TeV.00328221.physics_Main.merge.AOD.r10203_p3399
data17_13TeV.00328263.physics_Main.merge.AOD.r10203_p3399
data17_13TeV.00328333.physics_Main.merge.AOD.r10203_p3399
data17_13TeV.00328374.physics_Main.merge.AOD.r10203_p3399
data17_13TeV.00328393.physics_Main.merge.AOD.r10203_p3399
data17_13TeV.00329716.physics_Main.merge.AOD.r10203_p3399
data17_13TeV.00329778.physics_Main.merge.AOD.r10203_p3399
data17_13TeV.00329780.physics_Main.merge.AOD.r10203_p3399
data17_13TeV.00329829.physics_Main.merge.AOD.r10203_p3399
data17_13TeV.00329835.physics_Main.merge.AOD.r10203_p3399
data17_13TeV.00329869.physics_Main.merge.AOD.r10203_p3399
data17_13TeV.00329964.physics_Main.merge.AOD.r10203_p3399
data17_13TeV.00330025.physics_Main.merge.AOD.r10203_p3399
data17_13TeV.00330074.physics_Main.merge.AOD.r10203_p3399
data17_13TeV.00330079.physics_Main.merge.AOD.r10203_p3399
data17_13TeV.00330101.physics_Main.merge.AOD.r10203_p3399
data17_13TeV.00330160.physics_Main.merge.AOD.r10203_p3399
data17_13TeV.00330166.physics_Main.merge.AOD.r10203_p3399
data17_13TeV.00330203.physics_Main.merge.AOD.r10203_p3399
data17_13TeV.00330294.physics_Main.merge.AOD.r10203_p3399
data17_13TeV.00330470.physics_Main.merge.AOD.r10203_p3399
data17_13TeV.00331033.physics_Main.merge.AOD.r10203_p3399
data17_13TeV.00331082.physics_Main.merge.AOD.r10203_p3399
data17_13TeV.00331085.physics_Main.merge.AOD.r10203_p3399
data17_13TeV.00331129.physics_Main.merge.AOD.r10203_p3399
data17_13TeV.00331215.physics_Main.merge.AOD.r10203_p3399
data17_13TeV.00331239.physics_Main.merge.AOD.r10203_p3399
data17_13TeV.00331697.physics_Main.merge.AOD.r10203_p3399
data17_13TeV.00331710.physics_Main.merge.AOD.r10203_p3399
data17_13TeV.00331742.physics_Main.merge.AOD.r10203_p3399
data17_13TeV.00331772.physics_Main.merge.AOD.r10203_p3399
data17_13TeV.00331804.physics_Main.merge.AOD.r10203_p3399
data17_13TeV.00331825.physics_Main.merge.AOD.r10203_p3399
data17_13TeV.00331860.physics_Main.merge.AOD.r10203_p3399
data17_13TeV.00331875.physics_Main.merge.AOD.r10203_p3399
data17_13TeV.00331905.physics_Main.merge.AOD.r10203_p3399
data17_13TeV.00331951.physics_Main.merge.AOD.r10203_p3399
data17_13TeV.00331975.physics_Main.merge.AOD.r10203_p3399
data17_13TeV.00332303.physics_Main.merge.AOD.r10203_p3399
data17_13TeV.00332304.physics_Main.merge.AOD.r10203_p3399
data17_13TeV.00332720.physics_Main.merge.AOD.r10202_p3399
data17_13TeV.00332896.physics_Main.merge.AOD.r10203_p3399
data17_13TeV.00332915.physics_Main.merge.AOD.r10203_p3399
data17_13TeV.00332953.physics_Main.merge.AOD.r10203_p3399
data17_13TeV.00332955.physics_Main.merge.AOD.r10203_p3399
data17_13TeV.00333181.physics_Main.merge.AOD.r10203_p3399
data17_13TeV.00333192.physics_Main.merge.AOD.r10203_p3399
data17_13TeV.00333367.physics_Main.merge.AOD.r10203_p3399
data17_13TeV.00333380.physics_Main.merge.AOD.r10203_p3399
data17_13TeV.00333426.physics_Main.merge.AOD.r10203_p3399
data17_13TeV.00333469.physics_Main.merge.AOD.r10203_p3399
data17_13TeV.00333487.physics_Main.merge.AOD.r10203_p3399
data17_13TeV.00333519.physics_Main.merge.AOD.r10203_p3399
data17_13TeV.00333650.physics_Main.merge.AOD.r10203_p3399
data17_13TeV.00333707.physics_Main.merge.AOD.r10203_p3399
data17_13TeV.00333778.physics_Main.merge.AOD.r10203_p3399
data17_13TeV.00333828.physics_Main.merge.AOD.r10203_p3399
data17_13TeV.00333853.physics_Main.merge.AOD.r10203_p3399
data17_13TeV.00333904.physics_Main.merge.AOD.r10203_p3399
data17_13TeV.00333979.physics_Main.merge.AOD.r10203_p3399
data17_13TeV.00333994.physics_Main.merge.AOD.r10203_p3399
data17_13TeV.00334264.physics_Main.merge.AOD.r10203_p3399
data17_13TeV.00334317.physics_Main.merge.AOD.r10203_p3399
data17_13TeV.00334350.physics_Main.merge.AOD.r10203_p3399
data17_13TeV.00334384.physics_Main.merge.AOD.r10203_p3399
data17_13TeV.00334413.physics_Main.merge.AOD.r10203_p3399
data17_13TeV.00334443.physics_Main.merge.AOD.r10203_p3399
data17_13TeV.00334455.physics_Main.merge.AOD.r10203_p3399
data17_13TeV.00334487.physics_Main.merge.AOD.r10203_p3399
data17_13TeV.00334564.physics_Main.merge.AOD.r10203_p3399
data17_13TeV.00334580.physics_Main.merge.AOD.r10203_p3399
data17_13TeV.00334588.physics_Main.merge.AOD.r10203_p3399
data17_13TeV.00334637.physics_Main.merge.AOD.r10203_p3399
data17_13TeV.00334678.physics_Main.merge.AOD.r10203_p3399
data17_13TeV.00334737.physics_Main.merge.AOD.r10203_p3399
data17_13TeV.00334779.physics_Main.merge.AOD.r10203_p3399
data17_13TeV.00334842.physics_Main.merge.AOD.r10258_p3399
data17_13TeV.00334849.physics_Main.merge.AOD.r10258_p3399
data17_13TeV.00334878.physics_Main.merge.AOD.r10259_p3399
data17_13TeV.00334890.physics_Main.merge.AOD.r10258_p3399
data17_13TeV.00334907.physics_Main.merge.AOD.r10258_p3399
data17_13TeV.00334960.physics_Main.merge.AOD.r10258_p3399
data17_13TeV.00334993.physics_Main.merge.AOD.r10259_p3399
data17_13TeV.00335016.physics_Main.merge.AOD.r10258_p3399
data17_13TeV.00335022.physics_Main.merge.AOD.r10258_p3399
data17_13TeV.00335056.physics_Main.merge.AOD.r10258_p3399
data17_13TeV.00335082.physics_Main.merge.AOD.r10258_p3399
data17_13TeV.00335083.physics_Main.merge.AOD.r10258_p3399
data17_13TeV.00335131.physics_Main.merge.AOD.r10258_p3399
data17_13TeV.00335170.physics_Main.merge.AOD.r10258_p3399
data17_13TeV.00335177.physics_Main.merge.AOD.r10258_p3399
data17_13TeV.00335222.physics_Main.merge.AOD.r10258_p3399
data17_13TeV.00335282.physics_Main.merge.AOD.r10258_p3399
data17_13TeV.00335290.physics_Main.merge.AOD.r10258_p3399
data17_13TeV.00336506.physics_Main.merge.AOD.r10258_p3399
data17_13TeV.00336548.physics_Main.merge.AOD.r10259_p3399
data17_13TeV.00336567.physics_Main.merge.AOD.r10258_p3399
data17_13TeV.00336630.physics_Main.merge.AOD.r10259_p3399
data17_13TeV.00336678.physics_Main.merge.AOD.r10258_p3399
data17_13TeV.00336719.physics_Main.merge.AOD.r10258_p3399
data17_13TeV.00336782.physics_Main.merge.AOD.r10258_p3399
data17_13TeV.00336832.physics_Main.merge.AOD.r10259_p3399
data17_13TeV.00336852.physics_Main.merge.AOD.r10258_p3399
data17_13TeV.00336915.physics_Main.merge.AOD.r10258_p3399
data17_13TeV.00336927.physics_Main.merge.AOD.r10258_p3399
data17_13TeV.00336944.physics_Main.merge.AOD.r10258_p3399
data17_13TeV.00336998.physics_Main.merge.AOD.r10258_p3399
data17_13TeV.00337005.physics_Main.merge.AOD.r10258_p3399
data17_13TeV.00337052.physics_Main.merge.AOD.r10258_p3399
data17_13TeV.00337107.physics_Main.merge.AOD.r10258_p3399
data17_13TeV.00337156.physics_Main.merge.AOD.r10258_p3399
data17_13TeV.00337176.physics_Main.merge.AOD.r10258_p3399
data17_13TeV.00337215.physics_Main.merge.AOD.r10258_p3399
data17_13TeV.00337263.physics_Main.merge.AOD.r10258_p3399
data17_13TeV.00337335.physics_Main.merge.AOD.r10258_p3399
data17_13TeV.00337371.physics_Main.merge.AOD.r10258_p3399
data17_13TeV.00337404.physics_Main.merge.AOD.r10258_p3399
data17_13TeV.00337451.physics_Main.merge.AOD.r10258_p3399
data17_13TeV.00337491.physics_Main.merge.AOD.r10259_p3399
data17_13TeV.00337542.physics_Main.merge.AOD.r10258_p3399
data17_13TeV.00337662.physics_Main.merge.AOD.r10258_p3399
data17_13TeV.00337705.physics_Main.merge.AOD.r10258_p3399
data17_13TeV.00337833.physics_Main.merge.AOD.r10258_p3399
data17_13TeV.00338183.physics_Main.merge.AOD.r10258_p3399
data17_13TeV.00338220.physics_Main.merge.AOD.r10259_p3399
data17_13TeV.00338259.physics_Main.merge.AOD.r10258_p3399
data17_13TeV.00338263.physics_Main.merge.AOD.r10258_p3399
data17_13TeV.00338349.physics_Main.merge.AOD.r10258_p3399
data17_13TeV.00338377.physics_Main.merge.AOD.r10258_p3399
data17_13TeV.00338480.physics_Main.merge.AOD.r10258_p3399
data17_13TeV.00338498.physics_Main.merge.AOD.r10258_p3399
data17_13TeV.00338608.physics_Main.merge.AOD.r10258_p3399
data17_13TeV.00338675.physics_Main.merge.AOD.r10258_p3399
data17_13TeV.00338712.physics_Main.merge.AOD.r10258_p3399
data17_13TeV.00338767.physics_Main.merge.AOD.r10258_p3399
data17_13TeV.00338834.physics_Main.merge.AOD.r10258_p3399
data17_13TeV.00338846.physics_Main.merge.AOD.r10258_p3399
data17_13TeV.00338897.physics_Main.merge.AOD.r10258_p3399
data17_13TeV.00338933.physics_Main.merge.AOD.r10258_p3399
data17_13TeV.00338967.physics_Main.merge.AOD.r10258_p3399
data17_13TeV.00338987.physics_Main.merge.AOD.r10258_p3399
data17_13TeV.00339037.physics_Main.merge.AOD.r10258_p3399
data17_13TeV.00339070.physics_Main.merge.AOD.r10258_p3399
data17_13TeV.00339205.physics_Main.merge.AOD.r10258_p3399
data17_13TeV.00339346.physics_Main.merge.AOD.r10258_p3399
data17_13TeV.00339387.physics_Main.merge.AOD.r10259_p3399
data17_13TeV.00339396.physics_Main.merge.AOD.r10258_p3399
data17_13TeV.00339435.physics_Main.merge.AOD.r10258_p3399
data17_13TeV.00339500.physics_Main.merge.AOD.r10258_p3399
data17_13TeV.00339535.physics_Main.merge.AOD.r10258_p3399
data17_13TeV.00339562.physics_Main.merge.AOD.r10258_p3399
data17_13TeV.00339590.physics_Main.merge.AOD.r10258_p3399
data17_13TeV.00339758.physics_Main.merge.AOD.r10258_p3399
data17_13TeV.00339849.physics_Main.merge.AOD.r10258_p3399
data17_13TeV.00339957.physics_Main.merge.AOD.r10258_p3399
data17_13TeV.00340030.physics_Main.merge.AOD.r10258_p3399
data17_13TeV.00340072.physics_Main.merge.AOD.r10258_p3399
data17_13TeV.00340368.physics_Main.merge.AOD.r10258_p3399
data17_13TeV.00340453.physics_Main.merge.AOD.r10258_p3399
data18_13TeV.00348885.physics_Main.merge.AOD.f937_m1972
data18_13TeV.00348894.physics_Main.merge.AOD.f937_m1972
data18_13TeV.00348895.physics_Main.merge.AOD.f937_m1972
data18_13TeV.00349011.physics_Main.merge.AOD.f937_m1972
data18_13TeV.00349014.physics_Main.merge.AOD.f937_m1972
data18_13TeV.00349033.physics_Main.merge.AOD.f937_m1972
data18_13TeV.00349051.physics_Main.merge.AOD.f937_m1972
data18_13TeV.00349111.physics_Main.merge.AOD.f937_m1972
data18_13TeV.00349114.physics_Main.merge.AOD.f937_m1972
data18_13TeV.00349169.physics_Main.merge.AOD.f937_m1972
data18_13TeV.00349268.physics_Main.merge.AOD.f937_m1972
data18_13TeV.00349309.physics_Main.merge.AOD.f937_m1972
data18_13TeV.00349327.physics_Main.merge.AOD.f937_m1972
data18_13TeV.00349335.physics_Main.merge.AOD.f937_m1972
data18_13TeV.00349451.physics_Main.merge.AOD.f937_m1972
data18_13TeV.00349481.physics_Main.merge.AOD.f937_m1972
data18_13TeV.00349498.physics_Main.merge.AOD.f937_m1972
data18_13TeV.00349526.physics_Main.merge.AOD.f937_m1972
data18_13TeV.00349533.physics_Main.merge.AOD.f937_m1972
data18_13TeV.00349534.physics_Main.merge.AOD.f937_m1972
data18_13TeV.00349582.physics_Main.merge.AOD.f937_m1972
data18_13TeV.00349592.physics_Main.merge.AOD.f937_m1972
data18_13TeV.00349637.physics_Main.merge.AOD.f938_m1979
data18_13TeV.00349646.physics_Main.merge.AOD.f938_m1979
data18_13TeV.00349693.physics_Main.merge.AOD.f938_m1979
data18_13TeV.00349841.physics_Main.merge.AOD.f938_m1979
data18_13TeV.00349842.physics_Main.merge.AOD.f938_m1979
data18_13TeV.00349944.physics_Main.merge.AOD.f933_m1960
data18_13TeV.00349977.physics_Main.merge.AOD.f933_m1960
data18_13TeV.00350013.physics_Main.merge.AOD.f933_m1960
data18_13TeV.00350067.physics_Main.merge.AOD.f933_m1960
data18_13TeV.00350121.physics_Main.merge.AOD.f933_m1960
data18_13TeV.00350144.physics_Main.merge.AOD.f933_m1960
data18_13TeV.00350160.physics_Main.merge.AOD.f934_m1960
data18_13TeV.00350184.physics_Main.merge.AOD.f934_m1960
data18_13TeV.00350220.physics_Main.merge.AOD.f934_m1960
data18_13TeV.00350310.physics_Main.merge.AOD.f934_m1960
data18_13TeV.00350361.physics_Main.merge.AOD.f934_m1960
data18_13TeV.00350440.physics_Main.merge.AOD.f934_m1960
data18_13TeV.00350479.physics_Main.merge.AOD.f934_m1960
data18_13TeV.00350531.physics_Main.merge.AOD.f934_m1960
data18_13TeV.00350682.physics_Main.merge.AOD.f936_m1972
data18_13TeV.00350749.physics_Main.merge.AOD.f936_m1972
data18_13TeV.00350751.physics_Main.merge.AOD.f936_m1972
data18_13TeV.00350803.physics_Main.merge.AOD.f936_m1972
data18_13TeV.00350842.physics_Main.merge.AOD.f936_m1972
data18_13TeV.00350848.physics_Main.merge.AOD.f936_m1972
data18_13TeV.00350880.physics_Main.merge.AOD.f937_m1972
data18_13TeV.00350923.physics_Main.merge.AOD.f937_m1972
data18_13TeV.00351062.physics_Main.merge.AOD.f937_m1972
data18_13TeV.00351160.physics_Main.merge.AOD.f937_m1972
data18_13TeV.00351223.physics_Main.merge.AOD.f937_m1972
data18_13TeV.00351296.physics_Main.merge.AOD.f937_m1972
data18_13TeV.00351325.physics_Main.merge.AOD.f937_m1972
data18_13TeV.00351359.physics_Main.merge.AOD.f937_m1972
data18_13TeV.00351364.physics_Main.merge.AOD.f937_m1972
data18_13TeV.00351455.physics_Main.merge.AOD.f937_m1972
data18_13TeV.00351550.physics_Main.merge.AOD.f937_m1972
data18_13TeV.00351628.physics_Main.merge.AOD.f937_m1972
data18_13TeV.00351636.physics_Main.merge.AOD.f938_m1979
data18_13TeV.00351671.physics_Main.merge.AOD.f938_m1979
data18_13TeV.00351698.physics_Main.merge.AOD.f938_m1979
data18_13TeV.00351832.physics_Main.merge.AOD.f938_m1979
data18_13TeV.00351894.physics_Main.merge.AOD.f938_m1979
data18_13TeV.00351969.physics_Main.merge.AOD.f938_m1979
data18_13TeV.00352056.physics_Main.merge.AOD.f938_m1979
data18_13TeV.00352107.physics_Main.merge.AOD.f938_m1979
data18_13TeV.00352274.physics_Main.merge.AOD.f938_m1979
data18_13TeV.00352340.physics_Main.merge.AOD.f938_m1979
data18_13TeV.00352394.physics_Main.merge.AOD.f938_m1979
data18_13TeV.00352436.physics_Main.merge.AOD.f938_m1979
data18_13TeV.00352448.physics_Main.merge.AOD.f938_m1979
data18_13TeV.00352494.physics_Main.merge.AOD.f938_m1979
data18_13TeV.00352514.physics_Main.merge.AOD.f938_m1979
data18_13TeV.00355261.physics_Main.merge.AOD.f943_m1993
data18_13TeV.00355273.physics_Main.merge.AOD.f943_m1993
data18_13TeV.00355529.physics_Main.merge.AOD.f948_m1999
data18_13TeV.00355544.physics_Main.merge.AOD.f950_m1999
data18_13TeV.00355563.physics_Main.merge.AOD.f950_m1999
data18_13TeV.00355599.physics_Main.merge.AOD.f950_m1999
data18_13TeV.00355650.physics_Main.merge.AOD.f950_m1999
data18_13TeV.00355651.physics_Main.merge.AOD.f950_m1999
data18_13TeV.00355754.physics_Main.merge.AOD.f950_m1999
data18_13TeV.00355848.physics_Main.merge.AOD.f950_m1999
data18_13TeV.00355861.physics_Main.merge.AOD.f950_m2004
data18_13TeV.00355877.physics_Main.merge.AOD.f950_m2004
data18_13TeV.00355995.physics_Main.merge.AOD.f950_m2004
data18_13TeV.00356077.physics_Main.merge.AOD.f950_m2004
data18_13TeV.00356095.physics_Main.merge.AOD.f950_m2004
data18_13TeV.00356124.physics_Main.merge.AOD.f950_m2004
data18_13TeV.00356177.physics_Main.merge.AOD.f956_m2004
data18_13TeV.00356205.physics_Main.merge.AOD.f956_m2004
data18_13TeV.00356250.physics_Main.merge.AOD.f956_m2004
data18_13TeV.00356259.physics_Main.merge.AOD.f956_m2004
data18_13TeV.00357193.physics_Main.merge.AOD.f958_m2010
data18_13TeV.00357283.physics_Main.merge.AOD.f958_m2010
data18_13TeV.00357293.physics_Main.merge.AOD.f958_m2010
data18_13TeV.00357355.physics_Main.merge.AOD.f958_m2010
data18_13TeV.00357409.physics_Main.merge.AOD.f958_m2010
data18_13TeV.00357451.physics_Main.merge.AOD.f958_m2010
data18_13TeV.00357500.physics_Main.merge.AOD.f958_m2010
data18_13TeV.00357539.physics_Main.merge.AOD.f958_m2010
data18_13TeV.00357620.physics_Main.merge.AOD.f958_m2010
data18_13TeV.00357679.physics_Main.merge.AOD.f958_m2015
data18_13TeV.00357713.physics_Main.merge.AOD.f958_m2015
data18_13TeV.00357750.physics_Main.merge.AOD.f958_m2015
data18_13TeV.00357772.physics_Main.merge.AOD.f958_m2015
data18_13TeV.00357821.physics_Main.merge.AOD.f961_m2015
data18_13TeV.00357887.physics_Main.merge.AOD.f961_m2015
data18_13TeV.00357962.physics_Main.merge.AOD.f961_m2015
data18_13TeV.00358031.physics_Main.merge.AOD.f961_m2015
data18_13TeV.00358096.physics_Main.merge.AOD.f961_m2015
data18_13TeV.00358115.physics_Main.merge.AOD.f961_m2015
data18_13TeV.00358175.physics_Main.merge.AOD.f961_m2015
data18_13TeV.00358215.physics_Main.merge.AOD.f961_m2015
data18_13TeV.00358233.physics_Main.merge.AOD.f961_m2015
data18_13TeV.00358300.physics_Main.merge.AOD.f961_m2015
data18_13TeV.00358325.physics_Main.merge.AOD.f961_m2015
data18_13TeV.00358333.physics_Main.merge.AOD.f961_m2015
data18_13TeV.00358395.physics_Main.merge.AOD.f961_m2015
data18_13TeV.00358516.physics_Main.merge.AOD.f961_m2015
data18_13TeV.00358541.physics_Main.merge.AOD.f961_m2015
data18_13TeV.00358577.physics_Main.merge.AOD.f961_m2015
data18_13TeV.00358615.physics_Main.merge.AOD.f961_m2020
data18_13TeV.00358656.physics_Main.merge.AOD.f961_m2020
data18_13TeV.00358985.physics_Main.merge.AOD.f964_m2020
data18_13TeV.00359010.physics_Main.merge.AOD.f964_m2020
data18_13TeV.00359058.physics_Main.merge.AOD.f964_m2020
data18_13TeV.00359124.physics_Main.merge.AOD.f964_m2020
data18_13TeV.00359170.physics_Main.merge.AOD.f964_m2020
data18_13TeV.00359171.physics_Main.merge.AOD.f964_m2020
data18_13TeV.00359191.physics_Main.merge.AOD.f964_m2020
data18_13TeV.00359279.physics_Main.merge.AOD.f964_m2020
data18_13TeV.00359286.physics_Main.merge.AOD.f964_m2020
data18_13TeV.00359310.physics_Main.merge.AOD.f964_m2020
data18_13TeV.00359355.physics_Main.merge.AOD.f964_m2020
data18_13TeV.00359398.physics_Main.merge.AOD.f964_m2020
data18_13TeV.00359441.physics_Main.merge.AOD.f964_m2020
data18_13TeV.00359472.physics_Main.merge.AOD.f964_m2020
data18_13TeV.00359541.physics_Main.merge.AOD.f964_m2020
data18_13TeV.00359586.physics_Main.merge.AOD.f964_m2020
data18_13TeV.00359593.physics_Main.merge.AOD.f964_m2020
data18_13TeV.00359623.physics_Main.merge.AOD.f964_m2020
data18_13TeV.00359677.physics_Main.merge.AOD.f964_m2020
data18_13TeV.00359678.physics_Main.merge.AOD.f964_m2020
data18_13TeV.00359717.physics_Main.merge.AOD.f964_m2020
data18_13TeV.00359735.physics_Main.merge.AOD.f964_m2020
data18_13TeV.00359766.physics_Main.merge.AOD.f964_m2020
data18_13TeV.00359823.physics_Main.merge.AOD.f964_m2020
data18_13TeV.00359872.physics_Main.merge.AOD.f969_m2020
data18_13TeV.00359918.physics_Main.merge.AOD.f969_m2020
data18_13TeV.00360026.physics_Main.merge.AOD.f969_m2020
data18_13TeV.00360063.physics_Main.merge.AOD.f969_m2020
data18_13TeV.00360129.physics_Main.merge.AOD.f969_m2020
data18_13TeV.00360161.physics_Main.merge.AOD.f969_m2020
data18_13TeV.00360209.physics_Main.merge.AOD.f969_m2020
data18_13TeV.00360244.physics_Main.merge.AOD.f969_m2020
data18_13TeV.00360293.physics_Main.merge.AOD.f969_m2020
data18_13TeV.00360309.physics_Main.merge.AOD.f969_m2020
data18_13TeV.00360348.physics_Main.merge.AOD.f969_m2020
data18_13TeV.00360373.physics_Main.merge.AOD.f969_m2020
data18_13TeV.00360402.physics_Main.merge.AOD.f969_m2020
data18_13TeV.00361738.physics_Main.merge.AOD.f988_m2025
data18_13TeV.00361795.physics_Main.merge.AOD.f988_m2025
data18_13TeV.00361862.physics_Main.merge.AOD.f988_m2025
data18_13TeV.00362204.physics_Main.merge.AOD.f988_m2032
data18_13TeV.00362297.physics_Main.merge.AOD.f988_m2032
data18_13TeV.00362345.physics_Main.merge.AOD.f988_m2032
data18_13TeV.00362354.physics_Main.merge.AOD.f993_m2032
data18_13TeV.00362388.physics_Main.merge.AOD.f993_m2032
data18_13TeV.00362445.physics_Main.merge.AOD.f993_m2032
data18_13TeV.00362552.physics_Main.merge.AOD.f993_m2032
data18_13TeV.00362619.physics_Main.merge.AOD.f993_m2032
data18_13TeV.00362661.physics_Main.merge.AOD.f993_m2032
data18_13TeV.00362776.physics_Main.merge.AOD.f993_m2032
data18_13TeV.00363033.physics_Main.merge.AOD.f993_m2032
data18_13TeV.00363096.physics_Main.merge.AOD.f993_m2032
data18_13TeV.00363129.physics_Main.merge.AOD.f993_m2032
data18_13TeV.00363198.physics_Main.merge.AOD.f997_m2032
data18_13TeV.00363262.physics_Main.merge.AOD.f997_m2032
data18_13TeV.00363400.physics_Main.merge.AOD.f997_m2032
data18_13TeV.00363664.physics_Main.merge.AOD.f1001_m2037
data18_13TeV.00363710.physics_Main.merge.AOD.f1001_m2037
data18_13TeV.00363738.physics_Main.merge.AOD.f1002_m2037
data18_13TeV.00363830.physics_Main.merge.AOD.f1002_m2037
data18_13TeV.00363910.physics_Main.merge.AOD.f1002_m2037
data18_13TeV.00363947.physics_Main.merge.AOD.f1002_m2037
data18_13TeV.00363979.physics_Main.merge.AOD.f1002_m2037
data18_13TeV.00364030.physics_Main.merge.AOD.f1002_m2037
data18_13TeV.00364076.physics_Main.merge.AOD.f1002_m2037
data18_13TeV.00364098.physics_Main.merge.AOD.f1002_m2037
data18_13TeV.00364160.physics_Main.merge.AOD.f1002_m2037
data18_13TeV.00364214.physics_Main.merge.AOD.f1002_m2037
data18_13TeV.00364292.physics_Main.merge.AOD.f1002_m2037
mc16_13TeV.364250.Sherpa_222_NNPDF30NNLO_llll.recon.AOD.e5894_s3126_r9364
mc16_13TeV.364253.Sherpa_222_NNPDF30NNLO_lllv.recon.AOD.e5916_s3126_r9364
mc16_13TeV.364254.Sherpa_222_NNPDF30NNLO_llvv.recon.AOD.e5916_s3126_r9364
mc16_13TeV.364255.Sherpa_222_NNPDF30NNLO_lvvv.recon.AOD.e5916_s3126_r9364
mc16_13TeV.363355.Sherpa_221_NNPDF30NNLO_ZqqZvv.recon.AOD.e5525_s3126_r9364
mc16_13TeV.363356.Sherpa_221_NNPDF30NNLO_ZqqZll.recon.AOD.e5525_s3126_r9364
mc16_13TeV.363357.Sherpa_221_NNPDF30NNLO_WqqZvv.recon.AOD.e5525_s3126_r9364
mc16_13TeV.363358.Sherpa_221_NNPDF30NNLO_WqqZll.recon.AOD.e5525_s3126_r9364
mc16_13TeV.363359.Sherpa_221_NNPDF30NNLO_WpqqWmlv.recon.AOD.e5583_s3126_r9364
mc16_13TeV.363360.Sherpa_221_NNPDF30NNLO_WplvWmqq.recon.AOD.e5983_s3126_r9364
mc16_13TeV.364250.Sherpa_222_NNPDF30NNLO_llll.recon.AOD.e5894_s3126_r10201
mc16_13TeV.364253.Sherpa_222_NNPDF30NNLO_lllv.recon.AOD.e5916_s3126_r10201
mc16_13TeV.364254.Sherpa_222_NNPDF30NNLO_llvv.recon.AOD.e5916_s3126_r10201
mc16_13TeV.364255.Sherpa_222_NNPDF30NNLO_lvvv.recon.AOD.e5916_s3126_r10201
mc16_13TeV.363355.Sherpa_221_NNPDF30NNLO_ZqqZvv.recon.AOD.e5525_s3126_r10201
mc16_13TeV.363356.Sherpa_221_NNPDF30NNLO_ZqqZll.recon.AOD.e5525_s3126_r10201
mc16_13TeV.363357.Sherpa_221_NNPDF30NNLO_WqqZvv.recon.AOD.e5525_s3126_r10201
mc16_13TeV.363358.Sherpa_221_NNPDF30NNLO_WqqZll.recon.AOD.e5525_s3126_r10201
mc16_13TeV.363359.Sherpa_221_NNPDF30NNLO_WpqqWmlv.recon.AOD.e5583_s3126_r10201
mc16_13TeV.363360.Sherpa_221_NNPDF30NNLO_WplvWmqq.recon.AOD.e5983_s3126_r10201
mc16_13TeV.364250.Sherpa_222_NNPDF30NNLO_llll.recon.AOD.e5894_s3126_r10724
mc16_13TeV.364253.Sherpa_222_NNPDF30NNLO_lllv.recon.AOD.e5916_s3126_r10724
mc16_13TeV.364254.Sherpa_222_NNPDF30NNLO_llvv.recon.AOD.e5916_s3126_r10724
mc16_13TeV.364255.Sherpa_222_NNPDF30NNLO_lvvv.recon.AOD.e5916_s3126_r10724
mc16_13TeV.363355.Sherpa_221_NNPDF30NNLO_ZqqZvv.recon.AOD.e5525_s3126_r10724
mc16_13TeV.363356.Sherpa_221_NNPDF30NNLO_ZqqZll.recon.AOD.e5525_s3126_r10724
mc16_13TeV.363357.Sherpa_221_NNPDF30NNLO_WqqZvv.recon.AOD.e5525_s3126_r10724
mc16_13TeV.363358.Sherpa_221_NNPDF30NNLO_WqqZll.recon.AOD.e5525_s3126_r10724
mc16_13TeV.363359.Sherpa_221_NNPDF30NNLO_WpqqWmlv.recon.AOD.e5583_s3126_r10724
mc16_13TeV.363360.Sherpa_221_NNPDF30NNLO_WplvWmqq.recon.AOD.e5983_s3126_r10724
mc16_13TeV.345324.PowhegPythia8EvtGen_NNLOPS_NN30_ggH125_WWlvlv_EF_15_5.recon.AOD.e5769_s3126_r9364
mc16_13TeV.345324.PowhegPythia8EvtGen_NNLOPS_NN30_ggH125_WWlvlv_EF_15_5.recon.AOD.e5769_s3126_r10201
mc16_13TeV.345324.PowhegPythia8EvtGen_NNLOPS_NN30_ggH125_WWlvlv_EF_15_5.recon.AOD.e5769_s3126_r10724
mc16_13TeV.345120.PowhegPy8EG_NNLOPS_nnlo_30_ggH125_tautaul13l7.recon.AOD.e5814_s3126_r9364
mc16_13TeV.345121.PowhegPy8EG_NNLOPS_nnlo_30_ggH125_tautaulm15hp20.recon.AOD.e5814_s3126_r9364
mc16_13TeV.345122.PowhegPy8EG_NNLOPS_nnlo_30_ggH125_tautaulp15hm20.recon.AOD.e5814_s3126_r9364
mc16_13TeV.345123.PowhegPy8EG_NNLOPS_nnlo_30_ggH125_tautauh30h20.recon.AOD.e5814_s3126_r9364
mc16_13TeV.345120.PowhegPy8EG_NNLOPS_nnlo_30_ggH125_tautaul13l7.recon.AOD.e5814_s3126_r10201
mc16_13TeV.345121.PowhegPy8EG_NNLOPS_nnlo_30_ggH125_tautaulm15hp20.recon.AOD.e5814_s3126_r10201
mc16_13TeV.345122.PowhegPy8EG_NNLOPS_nnlo_30_ggH125_tautaulp15hm20.recon.AOD.e5814_s3126_r10201
mc16_13TeV.345123.PowhegPy8EG_NNLOPS_nnlo_30_ggH125_tautauh30h20.recon.AOD.e5814_s3126_r10201
mc16_13TeV.345120.PowhegPy8EG_NNLOPS_nnlo_30_ggH125_tautaul13l7.recon.AOD.e5814_s3126_r10724
mc16_13TeV.345121.PowhegPy8EG_NNLOPS_nnlo_30_ggH125_tautaulm15hp20.recon.AOD.e5814_s3126_r10724
mc16_13TeV.345122.PowhegPy8EG_NNLOPS_nnlo_30_ggH125_tautaulp15hm20.recon.AOD.e5814_s3126_r10724
mc16_13TeV.345323.PowhegPy8EG_NNPDF30_AZNLOCTEQ6L1_VBFH125_WWlvlv.recon.AOD.e5901_s3126_r9364
mc16_13TeV.345948.PowhegPy8EG_NNPDF30_AZNLOCTEQ6L1_VBFH125_WWlvlv.recon.AOD.e7172_s3126_r10201
mc16_13TeV.345948.PowhegPy8EG_NNPDF30_AZNLOCTEQ6L1_VBFH125_WWlvlv.recon.AOD.e7172_e5984_s3126_r10724
mc16_13TeV.345073.PowhegPy8EG_NNPDF30_AZNLOCTEQ6L1_VBFH125_tautaul13l7.recon.AOD.e5822_s3126_r9364
mc16_13TeV.345074.PowhegPy8EG_NNPDF30_AZNLOCTEQ6L1_VBFH125_tautaulm15hp20.recon.AOD.e5822_s3126_r9364
mc16_13TeV.345075.PowhegPy8EG_NNPDF30_AZNLOCTEQ6L1_VBFH125_tautaulp15hm20.recon.AOD.e5822_s3126_r9364
mc16_13TeV.345076.PowhegPy8EG_NNPDF30_AZNLOCTEQ6L1_VBFH125_tautauh30h20.recon.AOD.e5822_s3126_r9364
mc16_13TeV.303778.Pythia8EvtGen_A14NNPDF23LO_Ztaumu_LeptonFilter.recon.AOD.e4245_s3126_r9364
mc16_13TeV.303778.Pythia8EvtGen_A14NNPDF23LO_Ztaumu_LeptonFilter.recon.AOD.e4245_s3126_r10201
mc16_13TeV.303778.Pythia8EvtGen_A14NNPDF23LO_Ztaumu_LeptonFilter.recon.AOD.e4245_s3126_r10724
mc16_13TeV.303779.Pythia8EvtGen_A14NNPDF23LO_Ztaue_LeptonFilter.recon.AOD.e4245_s3126_r9364
mc16_13TeV.303779.Pythia8EvtGen_A14NNPDF23LO_Ztaue_LeptonFilter.recon.AOD.e4245_s3126_r10201
mc16_13TeV.303779.Pythia8EvtGen_A14NNPDF23LO_Ztaue_LeptonFilter.recon.AOD.e4245_s3126_r10724
mc16_13TeV.307503.Pythia8EvtGen_A14NNPDF23LO_Ztaumugamma_LeptonFilter.recon.AOD.e5557_s3126_r9364
mc16_13TeV.307504.Pythia8EvtGen_A14NNPDF23LO_Ztauegamma_LeptonFilter.recon.AOD.e5557_s3126_r9364
mc16_13TeV.410470.PhPy8EG_A14_ttbar_hdamp258p75_nonallhad.recon.AOD.e6337_s3126_r9364
mc16_13TeV.410644.PowhegPythia8EvtGen_A14_singletop_schan_lept_top.recon.AOD.e6527_s3126_r9364
mc16_13TeV.410645.PowhegPythia8EvtGen_A14_singletop_schan_lept_antitop.recon.AOD.e6527_s3126_r9364
mc16_13TeV.410646.PowhegPythia8EvtGen_A14_Wt_DR_inclusive_top.recon.AOD.e6552_s3126_r9364
mc16_13TeV.410647.PowhegPythia8EvtGen_A14_Wt_DR_inclusive_antitop.recon.AOD.e6552_s3126_r9364
mc16_13TeV.410658.PhPy8EG_A14_tchan_BW50_lept_top.recon.AOD.e6671_s3126_r9364
mc16_13TeV.410659.PhPy8EG_A14_tchan_BW50_lept_antitop.recon.AOD.e6671_s3126_r9364
mc16_13TeV.410470.PhPy8EG_A14_ttbar_hdamp258p75_nonallhad.recon.AOD.e6337_s3126_r10201
mc16_13TeV.410644.PowhegPythia8EvtGen_A14_singletop_schan_lept_top.recon.AOD.e6527_s3126_r10201
mc16_13TeV.410645.PowhegPythia8EvtGen_A14_singletop_schan_lept_antitop.recon.AOD.e6527_s3126_r10201
mc16_13TeV.410646.PowhegPythia8EvtGen_A14_Wt_DR_inclusive_top.recon.AOD.e6552_s3126_r10201
mc16_13TeV.410647.PowhegPythia8EvtGen_A14_Wt_DR_inclusive_antitop.recon.AOD.e6552_s3126_r10201
mc16_13TeV.410658.PhPy8EG_A14_tchan_BW50_lept_top.recon.AOD.e6671_s3126_r10201
mc16_13TeV.410659.PhPy8EG_A14_tchan_BW50_lept_antitop.recon.AOD.e6671_s3126_r10201
mc16_13TeV.410470.PhPy8EG_A14_ttbar_hdamp258p75_nonallhad.recon.AOD.e6337_s3126_r10724
mc16_13TeV.410644.PowhegPythia8EvtGen_A14_singletop_schan_lept_top.recon.AOD.e6527_s3126_r10724
mc16_13TeV.410645.PowhegPythia8EvtGen_A14_singletop_schan_lept_antitop.recon.AOD.e6527_s3126_r10724
mc16_13TeV.410646.PowhegPythia8EvtGen_A14_Wt_DR_inclusive_top.recon.AOD.e6552_s3126_r10724
mc16_13TeV.410647.PowhegPythia8EvtGen_A14_Wt_DR_inclusive_antitop.recon.AOD.e6552_s3126_r10724
mc16_13TeV.410658.PhPy8EG_A14_tchan_BW50_lept_top.recon.AOD.e6671_s3126_r10724
mc16_13TeV.410659.PhPy8EG_A14_tchan_BW50_lept_antitop.recon.AOD.e6671_s3126_r10724
mc16_13TeV.364156.Sherpa_221_NNPDF30NNLO_Wmunu_MAXHTPTV0_70_CVetoBVeto.recon.AOD.e5340_s3126_r9364
mc16_13TeV.364157.Sherpa_221_NNPDF30NNLO_Wmunu_MAXHTPTV0_70_CFilterBVeto.recon.AOD.e5340_s3126_r9364
mc16_13TeV.364158.Sherpa_221_NNPDF30NNLO_Wmunu_MAXHTPTV0_70_BFilter.recon.AOD.e5340_s3126_r9364
mc16_13TeV.364159.Sherpa_221_NNPDF30NNLO_Wmunu_MAXHTPTV70_140_CVetoBVeto.recon.AOD.e5340_s3126_r9364
mc16_13TeV.364160.Sherpa_221_NNPDF30NNLO_Wmunu_MAXHTPTV70_140_CFilterBVeto.recon.AOD.e5340_s3126_r9364
mc16_13TeV.364161.Sherpa_221_NNPDF30NNLO_Wmunu_MAXHTPTV70_140_BFilter.recon.AOD.e5340_s3126_r9364
mc16_13TeV.364162.Sherpa_221_NNPDF30NNLO_Wmunu_MAXHTPTV140_280_CVetoBVeto.recon.AOD.e5340_s3126_r9364
mc16_13TeV.364163.Sherpa_221_NNPDF30NNLO_Wmunu_MAXHTPTV140_280_CFilterBVeto.recon.AOD.e5340_s3126_r9364
mc16_13TeV.364164.Sherpa_221_NNPDF30NNLO_Wmunu_MAXHTPTV140_280_BFilter.recon.AOD.e5340_s3126_r9364
mc16_13TeV.364165.Sherpa_221_NNPDF30NNLO_Wmunu_MAXHTPTV280_500_CVetoBVeto.recon.AOD.e5340_s3126_r9364
mc16_13TeV.364166.Sherpa_221_NNPDF30NNLO_Wmunu_MAXHTPTV280_500_CFilterBVeto.recon.AOD.e5340_s3126_r9364
mc16_13TeV.364167.Sherpa_221_NNPDF30NNLO_Wmunu_MAXHTPTV280_500_BFilter.recon.AOD.e5340_s3126_r9364
mc16_13TeV.364168.Sherpa_221_NNPDF30NNLO_Wmunu_MAXHTPTV500_1000.recon.AOD.e5340_s3126_r9364
mc16_13TeV.364169.Sherpa_221_NNPDF30NNLO_Wmunu_MAXHTPTV1000_E_CMS.recon.AOD.e5340_s3126_r9364
mc16_13TeV.364170.Sherpa_221_NNPDF30NNLO_Wenu_MAXHTPTV0_70_CVetoBVeto.recon.AOD.e5340_s3126_r9364
mc16_13TeV.364171.Sherpa_221_NNPDF30NNLO_Wenu_MAXHTPTV0_70_CFilterBVeto.recon.AOD.e5340_s3126_r9364
mc16_13TeV.364172.Sherpa_221_NNPDF30NNLO_Wenu_MAXHTPTV0_70_BFilter.recon.AOD.e5340_s3126_r9364
mc16_13TeV.364173.Sherpa_221_NNPDF30NNLO_Wenu_MAXHTPTV70_140_CVetoBVeto.recon.AOD.e5340_s3126_r9364
mc16_13TeV.364174.Sherpa_221_NNPDF30NNLO_Wenu_MAXHTPTV70_140_CFilterBVeto.recon.AOD.e5340_s3126_r9364
mc16_13TeV.364175.Sherpa_221_NNPDF30NNLO_Wenu_MAXHTPTV70_140_BFilter.recon.AOD.e5340_s3126_r9364
mc16_13TeV.364176.Sherpa_221_NNPDF30NNLO_Wenu_MAXHTPTV140_280_CVetoBVeto.recon.AOD.e5340_s3126_r9364
mc16_13TeV.364177.Sherpa_221_NNPDF30NNLO_Wenu_MAXHTPTV140_280_CFilterBVeto.recon.AOD.e5340_s3126_r9364
mc16_13TeV.364178.Sherpa_221_NNPDF30NNLO_Wenu_MAXHTPTV140_280_BFilter.recon.AOD.e5340_s3126_r9364
mc16_13TeV.364179.Sherpa_221_NNPDF30NNLO_Wenu_MAXHTPTV280_500_CVetoBVeto.recon.AOD.e5340_s3126_r9364
mc16_13TeV.364180.Sherpa_221_NNPDF30NNLO_Wenu_MAXHTPTV280_500_CFilterBVeto.recon.AOD.e5340_s3126_r9364
mc16_13TeV.364181.Sherpa_221_NNPDF30NNLO_Wenu_MAXHTPTV280_500_BFilter.recon.AOD.e5340_s3126_r9364
mc16_13TeV.364182.Sherpa_221_NNPDF30NNLO_Wenu_MAXHTPTV500_1000.recon.AOD.e5340_s3126_r9364
mc16_13TeV.364183.Sherpa_221_NNPDF30NNLO_Wenu_MAXHTPTV1000_E_CMS.recon.AOD.e5340_s3126_r9364
mc16_13TeV.364184.Sherpa_221_NNPDF30NNLO_Wtaunu_MAXHTPTV0_70_CVetoBVeto.recon.AOD.e5340_s3126_r9364
mc16_13TeV.364185.Sherpa_221_NNPDF30NNLO_Wtaunu_MAXHTPTV0_70_CFilterBVeto.recon.AOD.e5340_s3126_r9364
mc16_13TeV.364186.Sherpa_221_NNPDF30NNLO_Wtaunu_MAXHTPTV0_70_BFilter.recon.AOD.e5340_s3126_r9364
mc16_13TeV.364187.Sherpa_221_NNPDF30NNLO_Wtaunu_MAXHTPTV70_140_CVetoBVeto.recon.AOD.e5340_s3126_r9364
mc16_13TeV.364188.Sherpa_221_NNPDF30NNLO_Wtaunu_MAXHTPTV70_140_CFilterBVeto.recon.AOD.e5340_s3126_r9364
mc16_13TeV.364189.Sherpa_221_NNPDF30NNLO_Wtaunu_MAXHTPTV70_140_BFilter.recon.AOD.e5340_s3126_r9364
mc16_13TeV.364190.Sherpa_221_NNPDF30NNLO_Wtaunu_MAXHTPTV140_280_CVetoBVeto.recon.AOD.e5340_s3126_r9364
mc16_13TeV.364191.Sherpa_221_NNPDF30NNLO_Wtaunu_MAXHTPTV140_280_CFilterBVeto.recon.AOD.e5340_s3126_r9364
mc16_13TeV.364192.Sherpa_221_NNPDF30NNLO_Wtaunu_MAXHTPTV140_280_BFilter.recon.AOD.e5340_s3126_r9364
mc16_13TeV.364193.Sherpa_221_NNPDF30NNLO_Wtaunu_MAXHTPTV280_500_CVetoBVeto.recon.AOD.e5340_s3126_r9364
mc16_13TeV.364194.Sherpa_221_NNPDF30NNLO_Wtaunu_MAXHTPTV280_500_CFilterBVeto.recon.AOD.e5340_s3126_r9364
mc16_13TeV.364195.Sherpa_221_NNPDF30NNLO_Wtaunu_MAXHTPTV280_500_BFilter.recon.AOD.e5340_s3126_r9364
mc16_13TeV.364196.Sherpa_221_NNPDF30NNLO_Wtaunu_MAXHTPTV500_1000.recon.AOD.e5340_s3126_r9364
mc16_13TeV.364197.Sherpa_221_NNPDF30NNLO_Wtaunu_MAXHTPTV1000_E_CMS.recon.AOD.e5340_s3126_r9364
mc16_13TeV.364156.Sherpa_221_NNPDF30NNLO_Wmunu_MAXHTPTV0_70_CVetoBVeto.recon.AOD.e5340_s3126_r10201
mc16_13TeV.364157.Sherpa_221_NNPDF30NNLO_Wmunu_MAXHTPTV0_70_CFilterBVeto.recon.AOD.e5340_s3126_r10201
mc16_13TeV.364158.Sherpa_221_NNPDF30NNLO_Wmunu_MAXHTPTV0_70_BFilter.recon.AOD.e5340_s3126_r10201
mc16_13TeV.364159.Sherpa_221_NNPDF30NNLO_Wmunu_MAXHTPTV70_140_CVetoBVeto.recon.AOD.e5340_s3126_r10201
mc16_13TeV.364160.Sherpa_221_NNPDF30NNLO_Wmunu_MAXHTPTV70_140_CFilterBVeto.recon.AOD.e5340_s3126_r10201
mc16_13TeV.364161.Sherpa_221_NNPDF30NNLO_Wmunu_MAXHTPTV70_140_BFilter.recon.AOD.e5340_s3126_r10201
mc16_13TeV.364162.Sherpa_221_NNPDF30NNLO_Wmunu_MAXHTPTV140_280_CVetoBVeto.recon.AOD.e5340_s3126_r10201
mc16_13TeV.364163.Sherpa_221_NNPDF30NNLO_Wmunu_MAXHTPTV140_280_CFilterBVeto.recon.AOD.e5340_s3126_r10201
mc16_13TeV.364164.Sherpa_221_NNPDF30NNLO_Wmunu_MAXHTPTV140_280_BFilter.recon.AOD.e5340_s3126_r10201
mc16_13TeV.364165.Sherpa_221_NNPDF30NNLO_Wmunu_MAXHTPTV280_500_CVetoBVeto.recon.AOD.e5340_s3126_r10201
mc16_13TeV.364166.Sherpa_221_NNPDF30NNLO_Wmunu_MAXHTPTV280_500_CFilterBVeto.recon.AOD.e5340_s3126_r10201
mc16_13TeV.364167.Sherpa_221_NNPDF30NNLO_Wmunu_MAXHTPTV280_500_BFilter.recon.AOD.e5340_s3126_r10201
mc16_13TeV.364168.Sherpa_221_NNPDF30NNLO_Wmunu_MAXHTPTV500_1000.recon.AOD.e5340_s3126_r10201
mc16_13TeV.364169.Sherpa_221_NNPDF30NNLO_Wmunu_MAXHTPTV1000_E_CMS.recon.AOD.e5340_s3126_r10201
mc16_13TeV.364170.Sherpa_221_NNPDF30NNLO_Wenu_MAXHTPTV0_70_CVetoBVeto.recon.AOD.e5340_s3126_r10201
mc16_13TeV.364171.Sherpa_221_NNPDF30NNLO_Wenu_MAXHTPTV0_70_CFilterBVeto.recon.AOD.e5340_s3126_r10201
mc16_13TeV.364172.Sherpa_221_NNPDF30NNLO_Wenu_MAXHTPTV0_70_BFilter.recon.AOD.e5340_s3126_r10201
mc16_13TeV.364173.Sherpa_221_NNPDF30NNLO_Wenu_MAXHTPTV70_140_CVetoBVeto.recon.AOD.e5340_s3126_r10201
mc16_13TeV.364174.Sherpa_221_NNPDF30NNLO_Wenu_MAXHTPTV70_140_CFilterBVeto.recon.AOD.e5340_s3126_r10201
mc16_13TeV.364175.Sherpa_221_NNPDF30NNLO_Wenu_MAXHTPTV70_140_BFilter.recon.AOD.e5340_s3126_r10201
mc16_13TeV.364176.Sherpa_221_NNPDF30NNLO_Wenu_MAXHTPTV140_280_CVetoBVeto.recon.AOD.e5340_s3126_r10201
mc16_13TeV.364177.Sherpa_221_NNPDF30NNLO_Wenu_MAXHTPTV140_280_CFilterBVeto.recon.AOD.e5340_s3126_r10201
mc16_13TeV.364178.Sherpa_221_NNPDF30NNLO_Wenu_MAXHTPTV140_280_BFilter.recon.AOD.e5340_s3126_r10201
mc16_13TeV.364179.Sherpa_221_NNPDF30NNLO_Wenu_MAXHTPTV280_500_CVetoBVeto.recon.AOD.e5340_s3126_r10201
mc16_13TeV.364180.Sherpa_221_NNPDF30NNLO_Wenu_MAXHTPTV280_500_CFilterBVeto.recon.AOD.e5340_s3126_r10201
mc16_13TeV.364181.Sherpa_221_NNPDF30NNLO_Wenu_MAXHTPTV280_500_BFilter.recon.AOD.e5340_s3126_r10201
mc16_13TeV.364182.Sherpa_221_NNPDF30NNLO_Wenu_MAXHTPTV500_1000.recon.AOD.e5340_s3126_r10201
mc16_13TeV.364183.Sherpa_221_NNPDF30NNLO_Wenu_MAXHTPTV1000_E_CMS.recon.AOD.e5340_s3126_r10201
mc16_13TeV.364184.Sherpa_221_NNPDF30NNLO_Wtaunu_MAXHTPTV0_70_CVetoBVeto.recon.AOD.e5340_s3126_r10201
mc16_13TeV.364185.Sherpa_221_NNPDF30NNLO_Wtaunu_MAXHTPTV0_70_CFilterBVeto.recon.AOD.e5340_s3126_r10201
mc16_13TeV.364186.Sherpa_221_NNPDF30NNLO_Wtaunu_MAXHTPTV0_70_BFilter.recon.AOD.e5340_s3126_r10201
mc16_13TeV.364187.Sherpa_221_NNPDF30NNLO_Wtaunu_MAXHTPTV70_140_CVetoBVeto.recon.AOD.e5340_s3126_r10201
mc16_13TeV.364188.Sherpa_221_NNPDF30NNLO_Wtaunu_MAXHTPTV70_140_CFilterBVeto.recon.AOD.e5340_s3126_r10201
mc16_13TeV.364189.Sherpa_221_NNPDF30NNLO_Wtaunu_MAXHTPTV70_140_BFilter.recon.AOD.e5340_s3126_r10201
mc16_13TeV.364190.Sherpa_221_NNPDF30NNLO_Wtaunu_MAXHTPTV140_280_CVetoBVeto.recon.AOD.e5340_s3126_r10201
mc16_13TeV.364191.Sherpa_221_NNPDF30NNLO_Wtaunu_MAXHTPTV140_280_CFilterBVeto.recon.AOD.e5340_s3126_r10201
mc16_13TeV.364192.Sherpa_221_NNPDF30NNLO_Wtaunu_MAXHTPTV140_280_BFilter.recon.AOD.e5340_s3126_r10201
mc16_13TeV.364193.Sherpa_221_NNPDF30NNLO_Wtaunu_MAXHTPTV280_500_CVetoBVeto.recon.AOD.e5340_s3126_r10201
mc16_13TeV.364194.Sherpa_221_NNPDF30NNLO_Wtaunu_MAXHTPTV280_500_CFilterBVeto.recon.AOD.e5340_s3126_r10201
mc16_13TeV.364195.Sherpa_221_NNPDF30NNLO_Wtaunu_MAXHTPTV280_500_BFilter.recon.AOD.e5340_s3126_r10201
mc16_13TeV.364196.Sherpa_221_NNPDF30NNLO_Wtaunu_MAXHTPTV500_1000.recon.AOD.e5340_s3126_r10201
mc16_13TeV.364197.Sherpa_221_NNPDF30NNLO_Wtaunu_MAXHTPTV1000_E_CMS.recon.AOD.e5340_s3126_r10201
mc16_13TeV.364156.Sherpa_221_NNPDF30NNLO_Wmunu_MAXHTPTV0_70_CVetoBVeto.recon.AOD.e5340_s3126_r10724
mc16_13TeV.364157.Sherpa_221_NNPDF30NNLO_Wmunu_MAXHTPTV0_70_CFilterBVeto.recon.AOD.e5340_s3126_r10724
mc16_13TeV.364158.Sherpa_221_NNPDF30NNLO_Wmunu_MAXHTPTV0_70_BFilter.recon.AOD.e5340_s3126_r10724
mc16_13TeV.364159.Sherpa_221_NNPDF30NNLO_Wmunu_MAXHTPTV70_140_CVetoBVeto.recon.AOD.e5340_s3126_r10724
mc16_13TeV.364160.Sherpa_221_NNPDF30NNLO_Wmunu_MAXHTPTV70_140_CFilterBVeto.recon.AOD.e5340_s3126_r10724
mc16_13TeV.364161.Sherpa_221_NNPDF30NNLO_Wmunu_MAXHTPTV70_140_BFilter.recon.AOD.e5340_s3126_r10724
mc16_13TeV.364162.Sherpa_221_NNPDF30NNLO_Wmunu_MAXHTPTV140_280_CVetoBVeto.recon.AOD.e5340_s3126_r10724
mc16_13TeV.364163.Sherpa_221_NNPDF30NNLO_Wmunu_MAXHTPTV140_280_CFilterBVeto.recon.AOD.e5340_s3126_r10724
mc16_13TeV.364164.Sherpa_221_NNPDF30NNLO_Wmunu_MAXHTPTV140_280_BFilter.recon.AOD.e5340_s3126_r10724
mc16_13TeV.364165.Sherpa_221_NNPDF30NNLO_Wmunu_MAXHTPTV280_500_CVetoBVeto.recon.AOD.e5340_s3126_r10724
mc16_13TeV.364166.Sherpa_221_NNPDF30NNLO_Wmunu_MAXHTPTV280_500_CFilterBVeto.recon.AOD.e5340_s3126_r10724
mc16_13TeV.364167.Sherpa_221_NNPDF30NNLO_Wmunu_MAXHTPTV280_500_BFilter.recon.AOD.e5340_s3126_r10724
mc16_13TeV.364168.Sherpa_221_NNPDF30NNLO_Wmunu_MAXHTPTV500_1000.recon.AOD.e5340_s3126_r10724
mc16_13TeV.364169.Sherpa_221_NNPDF30NNLO_Wmunu_MAXHTPTV1000_E_CMS.recon.AOD.e5340_s3126_r10724
mc16_13TeV.364170.Sherpa_221_NNPDF30NNLO_Wenu_MAXHTPTV0_70_CVetoBVeto.recon.AOD.e5340_s3126_r10724
mc16_13TeV.364171.Sherpa_221_NNPDF30NNLO_Wenu_MAXHTPTV0_70_CFilterBVeto.recon.AOD.e5340_s3126_r10724
mc16_13TeV.364172.Sherpa_221_NNPDF30NNLO_Wenu_MAXHTPTV0_70_BFilter.recon.AOD.e5340_s3126_r10724
mc16_13TeV.364173.Sherpa_221_NNPDF30NNLO_Wenu_MAXHTPTV70_140_CVetoBVeto.recon.AOD.e5340_s3126_r10724
mc16_13TeV.364174.Sherpa_221_NNPDF30NNLO_Wenu_MAXHTPTV70_140_CFilterBVeto.recon.AOD.e5340_s3126_r10724
mc16_13TeV.364175.Sherpa_221_NNPDF30NNLO_Wenu_MAXHTPTV70_140_BFilter.recon.AOD.e5340_s3126_r10724
mc16_13TeV.364176.Sherpa_221_NNPDF30NNLO_Wenu_MAXHTPTV140_280_CVetoBVeto.recon.AOD.e5340_s3126_r10724
mc16_13TeV.364177.Sherpa_221_NNPDF30NNLO_Wenu_MAXHTPTV140_280_CFilterBVeto.recon.AOD.e5340_s3126_r10724
mc16_13TeV.364178.Sherpa_221_NNPDF30NNLO_Wenu_MAXHTPTV140_280_BFilter.recon.AOD.e5340_s3126_r10724
mc16_13TeV.364179.Sherpa_221_NNPDF30NNLO_Wenu_MAXHTPTV280_500_CVetoBVeto.recon.AOD.e5340_s3126_r10724
mc16_13TeV.364180.Sherpa_221_NNPDF30NNLO_Wenu_MAXHTPTV280_500_CFilterBVeto.recon.AOD.e5340_s3126_r10724
mc16_13TeV.364181.Sherpa_221_NNPDF30NNLO_Wenu_MAXHTPTV280_500_BFilter.recon.AOD.e5340_s3126_r10724
mc16_13TeV.364182.Sherpa_221_NNPDF30NNLO_Wenu_MAXHTPTV500_1000.recon.AOD.e5340_s3126_r10724
mc16_13TeV.364183.Sherpa_221_NNPDF30NNLO_Wenu_MAXHTPTV1000_E_CMS.recon.AOD.e5340_s3126_r10724
mc16_13TeV.364184.Sherpa_221_NNPDF30NNLO_Wtaunu_MAXHTPTV0_70_CVetoBVeto.recon.AOD.e5340_s3126_r10724
mc16_13TeV.364185.Sherpa_221_NNPDF30NNLO_Wtaunu_MAXHTPTV0_70_CFilterBVeto.recon.AOD.e5340_s3126_r10724
mc16_13TeV.364186.Sherpa_221_NNPDF30NNLO_Wtaunu_MAXHTPTV0_70_BFilter.recon.AOD.e5340_s3126_r10724
mc16_13TeV.364187.Sherpa_221_NNPDF30NNLO_Wtaunu_MAXHTPTV70_140_CVetoBVeto.recon.AOD.e5340_s3126_r10724
mc16_13TeV.364188.Sherpa_221_NNPDF30NNLO_Wtaunu_MAXHTPTV70_140_CFilterBVeto.recon.AOD.e5340_s3126_r10724
mc16_13TeV.364189.Sherpa_221_NNPDF30NNLO_Wtaunu_MAXHTPTV70_140_BFilter.recon.AOD.e5340_s3126_r10724
mc16_13TeV.364190.Sherpa_221_NNPDF30NNLO_Wtaunu_MAXHTPTV140_280_CVetoBVeto.recon.AOD.e5340_s3126_r10724
mc16_13TeV.364191.Sherpa_221_NNPDF30NNLO_Wtaunu_MAXHTPTV140_280_CFilterBVeto.recon.AOD.e5340_s3126_r10724
mc16_13TeV.364192.Sherpa_221_NNPDF30NNLO_Wtaunu_MAXHTPTV140_280_BFilter.recon.AOD.e5340_s3126_r10724
mc16_13TeV.364193.Sherpa_221_NNPDF30NNLO_Wtaunu_MAXHTPTV280_500_CVetoBVeto.recon.AOD.e5340_s3126_r10724
mc16_13TeV.364194.Sherpa_221_NNPDF30NNLO_Wtaunu_MAXHTPTV280_500_CFilterBVeto.recon.AOD.e5340_s3126_r10724
mc16_13TeV.364195.Sherpa_221_NNPDF30NNLO_Wtaunu_MAXHTPTV280_500_BFilter.recon.AOD.e5340_s3126_r10724
mc16_13TeV.364196.Sherpa_221_NNPDF30NNLO_Wtaunu_MAXHTPTV500_1000.recon.AOD.e5340_s3126_r10724
mc16_13TeV.364197.Sherpa_221_NNPDF30NNLO_Wtaunu_MAXHTPTV1000_E_CMS.recon.AOD.e5340_s3126_r10724
mc16_13TeV.361106.PowhegPythia8EvtGen_AZNLOCTEQ6L1_Zee.recon.AOD.e3601_s3126_r9364
mc16_13TeV.361107.PowhegPythia8EvtGen_AZNLOCTEQ6L1_Zmumu.recon.AOD.e3601_s3126_r9364
mc16_13TeV.361106.PowhegPythia8EvtGen_AZNLOCTEQ6L1_Zee.recon.AOD.e3601_s3126_r10201
mc16_13TeV.361107.PowhegPythia8EvtGen_AZNLOCTEQ6L1_Zmumu.recon.AOD.e3601_s3126_r10201
mc16_13TeV.361106.PowhegPythia8EvtGen_AZNLOCTEQ6L1_Zee.recon.AOD.e3601_s3126_r10724
mc16_13TeV.361107.PowhegPythia8EvtGen_AZNLOCTEQ6L1_Zmumu.recon.AOD.e3601_s3126_r10724
mc16_13TeV.344772.Sherpa_221_NNPDF30NNLO_Ztautau_MAXHTPTV0_70_l13l7.recon.AOD.e5585_s3126_r9364
mc16_13TeV.344774.Sherpa_221_NNPDF30NNLO_Ztautau_MAXHTPTV0_70_l15h20.recon.AOD.e5585_s3126_r9364
mc16_13TeV.344775.Sherpa_221_NNPDF30NNLO_Ztautau_MAXHTPTV0_70_h30h20.recon.AOD.e5585_s3126_r9364
mc16_13TeV.344776.Sherpa_221_NNPDF30NNLO_Ztautau_MAXHTPTV70_140_l13l7.recon.AOD.e5585_s3126_r9364
mc16_13TeV.344778.Sherpa_221_NNPDF30NNLO_Ztautau_MAXHTPTV70_140_l15h20.recon.AOD.e5585_s3126_r9364
mc16_13TeV.344779.Sherpa_221_NNPDF30NNLO_Ztautau_MAXHTPTV70_140_h30h20.recon.AOD.e5585_s3126_r9364
mc16_13TeV.344780.Sherpa_221_NNPDF30NNLO_Ztautau_MAXHTPTV140_280_l13l7.recon.AOD.e5585_s3126_r9364
mc16_13TeV.344781.Sherpa_221_NNPDF30NNLO_Ztautau_MAXHTPTV140_280_l15h20.recon.AOD.e5585_s3126_r9364
mc16_13TeV.344782.Sherpa_221_NNPDF30NNLO_Ztautau_MAXHTPTV140_280_h30h20.recon.AOD.e5585_s3126_r9364
mc16_13TeV.364137.Sherpa_221_NNPDF30NNLO_Ztautau_MAXHTPTV280_500_CVetoBVeto.recon.AOD.e5307_s3126_r9364
mc16_13TeV.364138.Sherpa_221_NNPDF30NNLO_Ztautau_MAXHTPTV280_500_CFilterBVeto.recon.AOD.e5313_s3126_r9364
mc16_13TeV.364139.Sherpa_221_NNPDF30NNLO_Ztautau_MAXHTPTV280_500_BFilter.recon.AOD.e5313_s3126_r9364
mc16_13TeV.364140.Sherpa_221_NNPDF30NNLO_Ztautau_MAXHTPTV500_1000.recon.AOD.e5307_s3126_r9364
mc16_13TeV.364141.Sherpa_221_NNPDF30NNLO_Ztautau_MAXHTPTV1000_E_CMS.recon.AOD.e5307_s3126_r9364
mc16_13TeV.344772.Sherpa_221_NNPDF30NNLO_Ztautau_MAXHTPTV0_70_l13l7.recon.AOD.e5585_s3126_r10201
mc16_13TeV.344774.Sherpa_221_NNPDF30NNLO_Ztautau_MAXHTPTV0_70_l15h20.recon.AOD.e5585_s3126_r10201
mc16_13TeV.344775.Sherpa_221_NNPDF30NNLO_Ztautau_MAXHTPTV0_70_h30h20.recon.AOD.e5585_s3126_r10201
mc16_13TeV.344776.Sherpa_221_NNPDF30NNLO_Ztautau_MAXHTPTV70_140_l13l7.recon.AOD.e5585_s3126_r10201
mc16_13TeV.344778.Sherpa_221_NNPDF30NNLO_Ztautau_MAXHTPTV70_140_l15h20.recon.AOD.e5585_s3126_r10201
mc16_13TeV.344779.Sherpa_221_NNPDF30NNLO_Ztautau_MAXHTPTV70_140_h30h20.recon.AOD.e5585_s3126_r10201
mc16_13TeV.344780.Sherpa_221_NNPDF30NNLO_Ztautau_MAXHTPTV140_280_l13l7.recon.AOD.e5585_s3126_r10201
mc16_13TeV.344781.Sherpa_221_NNPDF30NNLO_Ztautau_MAXHTPTV140_280_l15h20.recon.AOD.e5585_s3126_r10201
mc16_13TeV.344782.Sherpa_221_NNPDF30NNLO_Ztautau_MAXHTPTV140_280_h30h20.recon.AOD.e5585_s3126_r10201
mc16_13TeV.364137.Sherpa_221_NNPDF30NNLO_Ztautau_MAXHTPTV280_500_CVetoBVeto.recon.AOD.e5307_s3126_r10201
mc16_13TeV.364138.Sherpa_221_NNPDF30NNLO_Ztautau_MAXHTPTV280_500_CFilterBVeto.recon.AOD.e5313_s3126_r10201
mc16_13TeV.364139.Sherpa_221_NNPDF30NNLO_Ztautau_MAXHTPTV280_500_BFilter.recon.AOD.e5313_s3126_r10201
mc16_13TeV.364140.Sherpa_221_NNPDF30NNLO_Ztautau_MAXHTPTV500_1000.recon.AOD.e5307_s3126_r10201
mc16_13TeV.364141.Sherpa_221_NNPDF30NNLO_Ztautau_MAXHTPTV1000_E_CMS.recon.AOD.e5307_s3126_r10201
mc16_13TeV.344772.Sherpa_221_NNPDF30NNLO_Ztautau_MAXHTPTV0_70_l13l7.recon.AOD.e5585_s3126_r10724
mc16_13TeV.344774.Sherpa_221_NNPDF30NNLO_Ztautau_MAXHTPTV0_70_l15h20.recon.AOD.e5585_s3126_r10724
mc16_13TeV.344775.Sherpa_221_NNPDF30NNLO_Ztautau_MAXHTPTV0_70_h30h20.recon.AOD.e5585_s3126_r10724
mc16_13TeV.344776.Sherpa_221_NNPDF30NNLO_Ztautau_MAXHTPTV70_140_l13l7.recon.AOD.e5585_s3126_r10724
mc16_13TeV.344778.Sherpa_221_NNPDF30NNLO_Ztautau_MAXHTPTV70_140_l15h20.recon.AOD.e5585_s3126_r10724
mc16_13TeV.344779.Sherpa_221_NNPDF30NNLO_Ztautau_MAXHTPTV70_140_h30h20.recon.AOD.e5585_s3126_r10724
mc16_13TeV.344780.Sherpa_221_NNPDF30NNLO_Ztautau_MAXHTPTV140_280_l13l7.recon.AOD.e5585_s3126_r10724
mc16_13TeV.344781.Sherpa_221_NNPDF30NNLO_Ztautau_MAXHTPTV140_280_l15h20.recon.AOD.e5585_s3126_r10724
mc16_13TeV.344782.Sherpa_221_NNPDF30NNLO_Ztautau_MAXHTPTV140_280_h30h20.recon.AOD.e5585_s3126_r10724
mc16_13TeV.364137.Sherpa_221_NNPDF30NNLO_Ztautau_MAXHTPTV280_500_CVetoBVeto.recon.AOD.e5307_s3126_r10724
mc16_13TeV.364138.Sherpa_221_NNPDF30NNLO_Ztautau_MAXHTPTV280_500_CFilterBVeto.recon.AOD.e5313_s3126_r10724
mc16_13TeV.364139.Sherpa_221_NNPDF30NNLO_Ztautau_MAXHTPTV280_500_BFilter.recon.AOD.e5313_s3126_r10724
mc16_13TeV.364140.Sherpa_221_NNPDF30NNLO_Ztautau_MAXHTPTV500_1000.recon.AOD.e5307_s3126_r10724
mc16_13TeV.364141.Sherpa_221_NNPDF30NNLO_Ztautau_MAXHTPTV1000_E_CMS.recon.AOD.e5307_s3126_r10724
