/dcache/atlas/wschan/Z_LFV_DAODs/Ztautau/mc16_13TeV.364137.Sherpa_221_NNPDF30NNLO_Ztautau_MAXHTPTV280_500_CVetoBVeto.deriv.DAOD_HIGG4D2.e5307_e5984_s3126_r10201_r10210_p3543/DAOD_HIGG4D2.14115881._000003.pool.root.1
/dcache/atlas/wschan/Z_LFV_DAODs/Ztautau/mc16_13TeV.364137.Sherpa_221_NNPDF30NNLO_Ztautau_MAXHTPTV280_500_CVetoBVeto.deriv.DAOD_HIGG4D2.e5307_e5984_s3126_r10201_r10210_p3543/DAOD_HIGG4D2.14115881._000006.pool.root.1
/dcache/atlas/wschan/Z_LFV_DAODs/Ztautau/mc16_13TeV.364137.Sherpa_221_NNPDF30NNLO_Ztautau_MAXHTPTV280_500_CVetoBVeto.deriv.DAOD_HIGG4D2.e5307_e5984_s3126_r10201_r10210_p3543/DAOD_HIGG4D2.14115881._000011.pool.root.1
/dcache/atlas/wschan/Z_LFV_DAODs/Ztautau/mc16_13TeV.364137.Sherpa_221_NNPDF30NNLO_Ztautau_MAXHTPTV280_500_CVetoBVeto.deriv.DAOD_HIGG4D2.e5307_e5984_s3126_r10201_r10210_p3543/DAOD_HIGG4D2.14115881._000015.pool.root.1
/dcache/atlas/wschan/Z_LFV_DAODs/Ztautau/mc16_13TeV.364137.Sherpa_221_NNPDF30NNLO_Ztautau_MAXHTPTV280_500_CVetoBVeto.deriv.DAOD_HIGG4D2.e5307_e5984_s3126_r10201_r10210_p3543/DAOD_HIGG4D2.14115881._000020.pool.root.1
/dcache/atlas/wschan/Z_LFV_DAODs/Ztautau/mc16_13TeV.364137.Sherpa_221_NNPDF30NNLO_Ztautau_MAXHTPTV280_500_CVetoBVeto.deriv.DAOD_HIGG4D2.e5307_e5984_s3126_r10201_r10210_p3543/DAOD_HIGG4D2.14115881._000023.pool.root.1
/dcache/atlas/wschan/Z_LFV_DAODs/Ztautau/mc16_13TeV.364137.Sherpa_221_NNPDF30NNLO_Ztautau_MAXHTPTV280_500_CVetoBVeto.deriv.DAOD_HIGG4D2.e5307_e5984_s3126_r10201_r10210_p3543/DAOD_HIGG4D2.14115887._000004.pool.root.1
/dcache/atlas/wschan/Z_LFV_DAODs/Ztautau/mc16_13TeV.364137.Sherpa_221_NNPDF30NNLO_Ztautau_MAXHTPTV280_500_CVetoBVeto.deriv.DAOD_HIGG4D2.e5307_e5984_s3126_r10201_r10210_p3543/DAOD_HIGG4D2.14115887._000005.pool.root.1
/dcache/atlas/wschan/Z_LFV_DAODs/Ztautau/mc16_13TeV.364137.Sherpa_221_NNPDF30NNLO_Ztautau_MAXHTPTV280_500_CVetoBVeto.deriv.DAOD_HIGG4D2.e5307_e5984_s3126_r10201_r10210_p3543/DAOD_HIGG4D2.14115887._000006.pool.root.1
/dcache/atlas/wschan/Z_LFV_DAODs/Ztautau/mc16_13TeV.364137.Sherpa_221_NNPDF30NNLO_Ztautau_MAXHTPTV280_500_CVetoBVeto.deriv.DAOD_HIGG4D2.e5307_e5984_s3126_r10201_r10210_p3543/DAOD_HIGG4D2.14115887._000012.pool.root.1
