mc16_13TeV.364250.Sherpa_222_NNPDF30NNLO_llll.deriv.NTUP_PILEUP.e5894_s3126_r9364_p3127
mc16_13TeV.364253.Sherpa_222_NNPDF30NNLO_lllv.deriv.NTUP_PILEUP.e5916_s3126_r9364_p3127
mc16_13TeV.364254.Sherpa_222_NNPDF30NNLO_llvv.deriv.NTUP_PILEUP.e5916_s3126_r9364_p3127
mc16_13TeV.364255.Sherpa_222_NNPDF30NNLO_lvvv.deriv.NTUP_PILEUP.e5916_s3126_r9364_p3127
mc16_13TeV.363355.Sherpa_221_NNPDF30NNLO_ZqqZvv.deriv.NTUP_PILEUP.e5525_s3126_r9364_p3127
mc16_13TeV.363356.Sherpa_221_NNPDF30NNLO_ZqqZll.deriv.NTUP_PILEUP.e5525_s3126_r9364_p3127
mc16_13TeV.363357.Sherpa_221_NNPDF30NNLO_WqqZvv.deriv.NTUP_PILEUP.e5525_s3126_r9364_p3127
mc16_13TeV.363358.Sherpa_221_NNPDF30NNLO_WqqZll.deriv.NTUP_PILEUP.e5525_s3126_r9364_p3127
mc16_13TeV.363359.Sherpa_221_NNPDF30NNLO_WpqqWmlv.deriv.NTUP_PILEUP.e5583_s3126_r9364_p3127
mc16_13TeV.363360.Sherpa_221_NNPDF30NNLO_WplvWmqq.deriv.NTUP_PILEUP.e5983_s3126_r9364_p3127
mc16_13TeV.345324.PowhegPythia8EvtGen_NNLOPS_NN30_ggH125_WWlvlv_EF_15_5.deriv.NTUP_PILEUP.e5769_s3126_r9364_p3127
mc16_13TeV.345120.PowhegPy8EG_NNLOPS_nnlo_30_ggH125_tautaul13l7.deriv.NTUP_PILEUP.e5814_s3126_r9364_p3127
mc16_13TeV.345121.PowhegPy8EG_NNLOPS_nnlo_30_ggH125_tautaulm15hp20.deriv.NTUP_PILEUP.e5814_s3126_r9364_p3127
mc16_13TeV.345122.PowhegPy8EG_NNLOPS_nnlo_30_ggH125_tautaulp15hm20.deriv.NTUP_PILEUP.e5814_s3126_r9364_p3127
mc16_13TeV.345123.PowhegPy8EG_NNLOPS_nnlo_30_ggH125_tautauh30h20.deriv.NTUP_PILEUP.e5814_s3126_r9364_p3127
mc16_13TeV.345948.PowhegPy8EG_NNPDF30_AZNLOCTEQ6L1_VBFH125_WWlvlv.deriv.NTUP_PILEUP.e7172_s3126_r9364_p3288
mc16_13TeV.346190.PowhegPy8EG_NNPDF30_AZNLOCTEQ6L1_VBFH125_tautaul13l7.deriv.NTUP_PILEUP.e7259_e5984_s3126_r9364_r9315_p3288
mc16_13TeV.346191.PowhegPy8EG_NNPDF30_AZNLOCTEQ6L1_VBFH125_tautaulm15hp20.deriv.NTUP_PILEUP.e7259_e5984_s3126_r9364_r9315_p3288
mc16_13TeV.346192.PowhegPy8EG_NNPDF30_AZNLOCTEQ6L1_VBFH125_tautaulp15hm20.deriv.NTUP_PILEUP.e7259_e5984_s3126_r9364_r9315_p3288
mc16_13TeV.346193.PowhegPy8EG_NNPDF30_AZNLOCTEQ6L1_VBFH125_tautauh30h20.deriv.NTUP_PILEUP.e7259_e5984_s3126_r9364_r9315_p3288
mc16_13TeV.303778.Pythia8EvtGen_A14NNPDF23LO_Ztaumu_LeptonFilter.deriv.NTUP_PILEUP.e4245_s3126_r9364_p3288
mc16_13TeV.303779.Pythia8EvtGen_A14NNPDF23LO_Ztaue_LeptonFilter.deriv.NTUP_PILEUP.e4245_s3126_r9364_p3288
mc16_13TeV.307503.Pythia8EvtGen_A14NNPDF23LO_Ztaumugamma_LeptonFilter.deriv.NTUP_PILEUP.e5557_s3126_r9364_p3288
mc16_13TeV.307504.Pythia8EvtGen_A14NNPDF23LO_Ztauegamma_LeptonFilter.deriv.NTUP_PILEUP.e5557_s3126_r9364_p3288
mc16_13TeV.410470.PhPy8EG_A14_ttbar_hdamp258p75_nonallhad.deriv.NTUP_PILEUP.e6337_s3126_r9364_p3288
mc16_13TeV.410644.PowhegPythia8EvtGen_A14_singletop_schan_lept_top.deriv.NTUP_PILEUP.e6527_s3126_r9364_p3288
mc16_13TeV.410645.PowhegPythia8EvtGen_A14_singletop_schan_lept_antitop.deriv.NTUP_PILEUP.e6527_s3126_r9364_p3288
mc16_13TeV.410646.PowhegPythia8EvtGen_A14_Wt_DR_inclusive_top.deriv.NTUP_PILEUP.e6552_s3126_r9364_p3288
mc16_13TeV.410647.PowhegPythia8EvtGen_A14_Wt_DR_inclusive_antitop.deriv.NTUP_PILEUP.e6552_s3126_r9364_p3288
mc16_13TeV.410658.PhPy8EG_A14_tchan_BW50_lept_top.deriv.NTUP_PILEUP.e6671_s3126_r9364_p3288
mc16_13TeV.410659.PhPy8EG_A14_tchan_BW50_lept_antitop.deriv.NTUP_PILEUP.e6671_s3126_r9364_p3288
mc16_13TeV.364156.Sherpa_221_NNPDF30NNLO_Wmunu_MAXHTPTV0_70_CVetoBVeto.deriv.NTUP_PILEUP.e5340_s3126_r9364_p3127
mc16_13TeV.364157.Sherpa_221_NNPDF30NNLO_Wmunu_MAXHTPTV0_70_CFilterBVeto.deriv.NTUP_PILEUP.e5340_s3126_r9364_p3127
mc16_13TeV.364158.Sherpa_221_NNPDF30NNLO_Wmunu_MAXHTPTV0_70_BFilter.deriv.NTUP_PILEUP.e5340_s3126_r9364_p3127
mc16_13TeV.364159.Sherpa_221_NNPDF30NNLO_Wmunu_MAXHTPTV70_140_CVetoBVeto.deriv.NTUP_PILEUP.e5340_s3126_r9364_p3127
mc16_13TeV.364160.Sherpa_221_NNPDF30NNLO_Wmunu_MAXHTPTV70_140_CFilterBVeto.deriv.NTUP_PILEUP.e5340_s3126_r9364_p3127
mc16_13TeV.364161.Sherpa_221_NNPDF30NNLO_Wmunu_MAXHTPTV70_140_BFilter.deriv.NTUP_PILEUP.e5340_s3126_r9364_p3127
mc16_13TeV.364162.Sherpa_221_NNPDF30NNLO_Wmunu_MAXHTPTV140_280_CVetoBVeto.deriv.NTUP_PILEUP.e5340_s3126_r9364_p3127
mc16_13TeV.364163.Sherpa_221_NNPDF30NNLO_Wmunu_MAXHTPTV140_280_CFilterBVeto.deriv.NTUP_PILEUP.e5340_s3126_r9364_p3288
mc16_13TeV.364164.Sherpa_221_NNPDF30NNLO_Wmunu_MAXHTPTV140_280_BFilter.deriv.NTUP_PILEUP.e5340_s3126_r9364_p3127
mc16_13TeV.364165.Sherpa_221_NNPDF30NNLO_Wmunu_MAXHTPTV280_500_CVetoBVeto.deriv.NTUP_PILEUP.e5340_s3126_r9364_p3127
mc16_13TeV.364166.Sherpa_221_NNPDF30NNLO_Wmunu_MAXHTPTV280_500_CFilterBVeto.deriv.NTUP_PILEUP.e5340_s3126_r9364_p3127
mc16_13TeV.364167.Sherpa_221_NNPDF30NNLO_Wmunu_MAXHTPTV280_500_BFilter.deriv.NTUP_PILEUP.e5340_s3126_r9364_p3127
mc16_13TeV.364168.Sherpa_221_NNPDF30NNLO_Wmunu_MAXHTPTV500_1000.deriv.NTUP_PILEUP.e5340_s3126_r9364_p3127
mc16_13TeV.364169.Sherpa_221_NNPDF30NNLO_Wmunu_MAXHTPTV1000_E_CMS.deriv.NTUP_PILEUP.e5340_s3126_r9364_p3127
mc16_13TeV.364170.Sherpa_221_NNPDF30NNLO_Wenu_MAXHTPTV0_70_CVetoBVeto.deriv.NTUP_PILEUP.e5340_s3126_r9364_p3127
mc16_13TeV.364171.Sherpa_221_NNPDF30NNLO_Wenu_MAXHTPTV0_70_CFilterBVeto.deriv.NTUP_PILEUP.e5340_s3126_r9364_p3127
mc16_13TeV.364172.Sherpa_221_NNPDF30NNLO_Wenu_MAXHTPTV0_70_BFilter.deriv.NTUP_PILEUP.e5340_s3126_r9364_p3127
mc16_13TeV.364173.Sherpa_221_NNPDF30NNLO_Wenu_MAXHTPTV70_140_CVetoBVeto.deriv.NTUP_PILEUP.e5340_s3126_r9364_p3127
mc16_13TeV.364174.Sherpa_221_NNPDF30NNLO_Wenu_MAXHTPTV70_140_CFilterBVeto.deriv.NTUP_PILEUP.e5340_s3126_r9364_p3127
mc16_13TeV.364175.Sherpa_221_NNPDF30NNLO_Wenu_MAXHTPTV70_140_BFilter.deriv.NTUP_PILEUP.e5340_s3126_r9364_p3288
mc16_13TeV.364176.Sherpa_221_NNPDF30NNLO_Wenu_MAXHTPTV140_280_CVetoBVeto.deriv.NTUP_PILEUP.e5340_s3126_r9364_p3127
mc16_13TeV.364177.Sherpa_221_NNPDF30NNLO_Wenu_MAXHTPTV140_280_CFilterBVeto.deriv.NTUP_PILEUP.e5340_s3126_r9364_p3288
mc16_13TeV.364178.Sherpa_221_NNPDF30NNLO_Wenu_MAXHTPTV140_280_BFilter.deriv.NTUP_PILEUP.e5340_s3126_r9364_p3127
mc16_13TeV.364179.Sherpa_221_NNPDF30NNLO_Wenu_MAXHTPTV280_500_CVetoBVeto.deriv.NTUP_PILEUP.e5340_s3126_r9364_p3127
mc16_13TeV.364180.Sherpa_221_NNPDF30NNLO_Wenu_MAXHTPTV280_500_CFilterBVeto.deriv.NTUP_PILEUP.e5340_s3126_r9364_p3127
mc16_13TeV.364181.Sherpa_221_NNPDF30NNLO_Wenu_MAXHTPTV280_500_BFilter.deriv.NTUP_PILEUP.e5340_s3126_r9364_p3127
mc16_13TeV.364182.Sherpa_221_NNPDF30NNLO_Wenu_MAXHTPTV500_1000.deriv.NTUP_PILEUP.e5340_s3126_r9364_p3127
mc16_13TeV.364183.Sherpa_221_NNPDF30NNLO_Wenu_MAXHTPTV1000_E_CMS.deriv.NTUP_PILEUP.e5340_s3126_r9364_p3127
mc16_13TeV.364184.Sherpa_221_NNPDF30NNLO_Wtaunu_MAXHTPTV0_70_CVetoBVeto.deriv.NTUP_PILEUP.e5340_s3126_r9364_p3127
mc16_13TeV.364185.Sherpa_221_NNPDF30NNLO_Wtaunu_MAXHTPTV0_70_CFilterBVeto.deriv.NTUP_PILEUP.e5340_s3126_r9364_p3127
mc16_13TeV.364186.Sherpa_221_NNPDF30NNLO_Wtaunu_MAXHTPTV0_70_BFilter.deriv.NTUP_PILEUP.e5340_s3126_r9364_p3127
mc16_13TeV.364187.Sherpa_221_NNPDF30NNLO_Wtaunu_MAXHTPTV70_140_CVetoBVeto.deriv.NTUP_PILEUP.e5340_s3126_r9364_p3127
mc16_13TeV.364188.Sherpa_221_NNPDF30NNLO_Wtaunu_MAXHTPTV70_140_CFilterBVeto.deriv.NTUP_PILEUP.e5340_s3126_r9364_p3127
mc16_13TeV.364189.Sherpa_221_NNPDF30NNLO_Wtaunu_MAXHTPTV70_140_BFilter.deriv.NTUP_PILEUP.e5340_s3126_r9364_p3127
mc16_13TeV.364190.Sherpa_221_NNPDF30NNLO_Wtaunu_MAXHTPTV140_280_CVetoBVeto.deriv.NTUP_PILEUP.e5340_s3126_r9364_p3288
mc16_13TeV.364191.Sherpa_221_NNPDF30NNLO_Wtaunu_MAXHTPTV140_280_CFilterBVeto.deriv.NTUP_PILEUP.e5340_s3126_r9364_p3288
mc16_13TeV.364192.Sherpa_221_NNPDF30NNLO_Wtaunu_MAXHTPTV140_280_BFilter.deriv.NTUP_PILEUP.e5340_s3126_r9364_p3127
mc16_13TeV.364193.Sherpa_221_NNPDF30NNLO_Wtaunu_MAXHTPTV280_500_CVetoBVeto.deriv.NTUP_PILEUP.e5340_s3126_r9364_p3288
mc16_13TeV.364194.Sherpa_221_NNPDF30NNLO_Wtaunu_MAXHTPTV280_500_CFilterBVeto.deriv.NTUP_PILEUP.e5340_s3126_r9364_p3288
mc16_13TeV.364195.Sherpa_221_NNPDF30NNLO_Wtaunu_MAXHTPTV280_500_BFilter.deriv.NTUP_PILEUP.e5340_s3126_r9364_p3127
mc16_13TeV.364196.Sherpa_221_NNPDF30NNLO_Wtaunu_MAXHTPTV500_1000.deriv.NTUP_PILEUP.e5340_s3126_r9364_p3127
mc16_13TeV.364197.Sherpa_221_NNPDF30NNLO_Wtaunu_MAXHTPTV1000_E_CMS.deriv.NTUP_PILEUP.e5340_s3126_r9364_p3127
mc16_13TeV.361106.PowhegPythia8EvtGen_AZNLOCTEQ6L1_Zee.deriv.NTUP_PILEUP.e3601_s3126_r9364_p3127
mc16_13TeV.361107.PowhegPythia8EvtGen_AZNLOCTEQ6L1_Zmumu.deriv.NTUP_PILEUP.e3601_s3126_r9364_p3127
mc16_13TeV.344772.Sherpa_221_NNPDF30NNLO_Ztautau_MAXHTPTV0_70_l13l7.deriv.NTUP_PILEUP.e5585_s3126_r9364_p3127
mc16_13TeV.344774.Sherpa_221_NNPDF30NNLO_Ztautau_MAXHTPTV0_70_l15h20.deriv.NTUP_PILEUP.e5585_s3126_r9364_p3127
mc16_13TeV.344775.Sherpa_221_NNPDF30NNLO_Ztautau_MAXHTPTV0_70_h30h20.deriv.NTUP_PILEUP.e5585_s3126_r9364_p3127
mc16_13TeV.344776.Sherpa_221_NNPDF30NNLO_Ztautau_MAXHTPTV70_140_l13l7.deriv.NTUP_PILEUP.e5585_s3126_r9364_p3127
mc16_13TeV.344778.Sherpa_221_NNPDF30NNLO_Ztautau_MAXHTPTV70_140_l15h20.deriv.NTUP_PILEUP.e5585_s3126_r9364_p3127
mc16_13TeV.344779.Sherpa_221_NNPDF30NNLO_Ztautau_MAXHTPTV70_140_h30h20.deriv.NTUP_PILEUP.e5585_s3126_r9364_p3127
mc16_13TeV.344780.Sherpa_221_NNPDF30NNLO_Ztautau_MAXHTPTV140_280_l13l7.deriv.NTUP_PILEUP.e5585_s3126_r9364_p3127
mc16_13TeV.344781.Sherpa_221_NNPDF30NNLO_Ztautau_MAXHTPTV140_280_l15h20.deriv.NTUP_PILEUP.e5585_s3126_r9364_p3127
mc16_13TeV.344782.Sherpa_221_NNPDF30NNLO_Ztautau_MAXHTPTV140_280_h30h20.deriv.NTUP_PILEUP.e5585_s3126_r9364_p3127
mc16_13TeV.364137.Sherpa_221_NNPDF30NNLO_Ztautau_MAXHTPTV280_500_CVetoBVeto.deriv.NTUP_PILEUP.e5307_s3126_r9364_p3127
mc16_13TeV.364138.Sherpa_221_NNPDF30NNLO_Ztautau_MAXHTPTV280_500_CFilterBVeto.deriv.NTUP_PILEUP.e5313_s3126_r9364_p3127
mc16_13TeV.364139.Sherpa_221_NNPDF30NNLO_Ztautau_MAXHTPTV280_500_BFilter.deriv.NTUP_PILEUP.e5313_s3126_r9364_p3127
mc16_13TeV.364140.Sherpa_221_NNPDF30NNLO_Ztautau_MAXHTPTV500_1000.deriv.NTUP_PILEUP.e5307_s3126_r9364_p3127
mc16_13TeV.364141.Sherpa_221_NNPDF30NNLO_Ztautau_MAXHTPTV1000_E_CMS.deriv.NTUP_PILEUP.e5307_s3126_r9364_p3127
mc16_13TeV.361665.PowhegPythia8EvtGen_AZNLOCTEQ6L1_DYee_10M60.deriv.NTUP_PILEUP.e4770_s3126_r9364_p3288
mc16_13TeV.361667.PowhegPythia8EvtGen_AZNLOCTEQ6L1_DYmumu_10M60.deriv.NTUP_PILEUP.e4770_s3126_r9364_p3288
mc16_13TeV.364210.Sherpa_221_NN30NNLO_Ztt_Mll10_40_MAXHTPTV0_70_BVeto.deriv.NTUP_PILEUP.e5421_s3126_r9364_p3127
mc16_13TeV.364211.Sherpa_221_NN30NNLO_Ztt_Mll10_40_MAXHTPTV0_70_BFilter.deriv.NTUP_PILEUP.e5421_s3126_r9364_p3127
mc16_13TeV.364212.Sherpa_221_NN30NNLO_Ztt_Mll10_40_MAXHTPTV70_280_BVeto.deriv.NTUP_PILEUP.e5421_s3126_r9364_p3127
mc16_13TeV.364213.Sherpa_221_NN30NNLO_Ztt_Mll10_40_MAXHTPTV70_280_BFilter.deriv.NTUP_PILEUP.e5421_s3126_r9364_p3127
mc16_13TeV.364214.Sherpa_221_NN30NNLO_Ztt_Mll10_40_MAXHTPTV280_E_CMS_BVeto.deriv.NTUP_PILEUP.e5421_s3126_r9364_p3127
mc16_13TeV.364215.Sherpa_221_NN30NNLO_Ztt_Mll10_40_MAXHTPTV280_E_CMS_BFilter.deriv.NTUP_PILEUP.e5421_s3126_r9364_p3127
